<?xml version="1.0" encoding="UTF-8"?>
<svg id="Camada_1" data-name="Camada 1" xmlns="http://www.w3.org/2000/svg" viewBox="0 0 395.39 92.74">
  <defs>
    <style>
      .cls-1 {
        fill: #fff;
      }
    </style>
  </defs>
  <g>
    <path d="M151.75,80.1c6.26,0,11.68-1.89,16.11-5.6,4.43-3.71,6.59-8.02,6.59-13.16v-11.16h-26.96v5.48c0,1.5-.62,2.83-1.84,3.95-1.2,1.09-2.68,1.65-4.41,1.65h-.14v.18h-5.45v-.18h-.47c-1.76,0-3.26-.55-4.47-1.64-1.25-1.12-1.88-2.44-1.88-3.94v-18.17c0-1.5,.63-2.82,1.88-3.94,1.21-1.08,2.71-1.63,4.47-1.63h.47v-.23h5.45v.23h.14c1.72,0,3.2,.55,4.41,1.63,1.22,1.12,1.85,2.43,1.85,3.92v4.45h26.96v-10.28c0-5.27-2.16-9.64-6.59-13.38-4.44-3.73-9.85-5.63-16.11-5.63h-27.11c-6.28,0-11.72,1.89-16.17,5.62-4.44,3.73-6.6,8.09-6.6,13.35v29.67c0,5.16,2.16,9.48,6.6,13.2,4.45,3.73,9.89,5.61,16.17,5.61h27.11Z"/>
    <path d="M253.27,61.25h-.65c-1.76,0-3.28-.56-4.5-1.66-1.25-1.13-1.89-2.48-1.89-4v-.47c0-1.52,.63-2.86,1.87-3.99,1.21-1.11,2.72-1.67,4.47-1.67h6.89v-10.11c0-1.69-.73-2.35-2.61-2.35h-14.59c-6.34,0-11.84,1.9-16.33,5.63-4.48,3.73-6.66,8.1-6.66,13.36v5.28c0,5.17,2.16,9.49,6.62,13.22,4.45,3.72,9.89,5.62,16.19,5.62h49.76V31.62c0-5.26-2.17-9.62-6.62-13.35-4.45-3.73-9.9-5.62-16.19-5.62h-28.26c-.11,.23-9.15,18.69-9.45,19.28h27.19c1.76,0,3.26,.55,4.47,1.63,1.26,1.13,1.89,2.45,1.89,3.94v18.17c0,1.49-.62,2.81-1.85,3.94-1.19,1.08-2.68,1.64-4.4,1.64h-5.38Z"/>
    <path d="M209.25,59.61c-1.24-1.13-1.86-2.44-1.86-3.94v-18.17c0-1.5,.64-2.82,1.89-3.95,1.21-1.08,2.71-1.63,4.46-1.63h10.13c.12-.23,9.16-18.69,9.45-19.28h-30.08c-6.29,0-11.73,1.89-16.18,5.62-4.45,3.73-6.62,8.09-6.62,13.35v48.49h33.35v-18.85h-.13c-1.73,0-3.22-.55-4.41-1.64"/>
  </g>
  <rect x="299.1" y="12.64" width="26.95" height="67.46"/>
  <g>
    <path d="M360.23,61.25V12.65h-26.95V80.1h52.57c.11-.23,8.95-18.27,9.23-18.85h-34.85Z"/>
    <path d="M84.52,7.9C78.86,2.79,71.95,.2,63.97,.2H29.37C21.36,.2,14.42,2.79,8.74,7.89,3.06,12.99,.31,18.97,.31,26.17v40.63c0,7.06,2.75,12.97,8.43,18.06,5.67,5.1,12.62,7.69,20.63,7.69H63.97c7.99,0,14.9-2.58,20.56-7.66,5.66-5.09,8.4-10.99,8.4-18.03V26.22c0-7.21-2.75-13.21-8.41-18.32"/>
    <path class="cls-1" d="M30.73,25.47c4.35,4.35,9.54,6.71,15.43,7.01,5.93,.3,10.75-1.49,14.74-5.48l7.21-7.21c.33-.33,.43-.82,.25-1.26-.18-.43-.6-.71-1.07-.71l-41.26,.17c-.47,0-.89,.29-1.07,.72-.18,.43-.08,.93,.25,1.26l5.52,5.52Z"/>
    <path class="cls-1" d="M75.11,25.93c0-.47-.32-.85-.75-1.02-.43-.18-.98-.04-1.3,.29l-6.99,6.99c-3.9,3.91-5.65,8.68-5.34,14.59,.31,5.87,2.68,11.05,7.03,15.4l5.52,5.52c.33,.34,.83,.44,1.26,.26,.43-.18,.71-.61,.71-1.06l-.14-40.96Z"/>
    <path class="cls-1" d="M60.23,65.5L19.96,25.23c-.33-.33-.83-.43-1.26-.25-.43,.17-.72,.6-.72,1.07v29.02c0,5.45,2.12,10.01,6.5,13.94,4.38,3.93,9.73,5.94,15.91,5.94h26.49c.31,0,.61-.12,.82-.34,.22-.21,.33-.51,.33-.81q0-.48-7.8-8.28"/>
  </g>
</svg>