<?xml version="1.0" encoding="UTF-8"?>
<svg id="Camada_1" data-name="Camada 1" xmlns="http://www.w3.org/2000/svg" viewBox="0 0 400 58.17">
  <defs>
    <style>
      .cls-1 {
        fill: #fff;
      }

      .cls-2 {
        fill: #674356;
      }
    </style>
  </defs>
  <path class="cls-2" d="M13.26,2.27s-.07-.04-.1-.06c-.13-.07-.27-.14-.42-.2-.02,0-.03-.01-.04-.02-.16-.06-.33-.11-.5-.14l-.12-.03c-.17-.04-.35-.07-.52-.08l2.81,2.58c.06,0,.11,.02,.17,.03-.12-.81-.43-1.38-.88-1.79-.12-.11-.26-.21-.4-.29"/>
  <polygon class="cls-2" points="33.47 4.3 33.67 3.73 30.86 1.15 30.65 1.72 33.47 4.3"/>
  <polygon class="cls-2" points="38.72 27.08 37.03 31.23 32.89 41.41 32.69 41.41 18.14 41.43 .01 41.44 2.82 44.02 35.7 43.99 41.53 29.66 38.72 27.08"/>
  <g>
    <path class="cls-2" d="M24.28,7.71L14.94,40.22h3.55S27.09,10.29,27.09,10.29c1.32-4.55,4.02-5.76,6.37-5.99l-2.81-2.58c-1.18,.12-2.44,.48-3.57,1.38-1.13,.9-2.14,2.34-2.8,4.61"/>
    <path class="cls-2" d="M65.45,16.41c.06,.08,.12,.15,.18,.23,.21,.29,.4,.59,.57,.92l.38-.24-1.8-1.65s.07,.08,.11,.12c.2,.19,.38,.4,.56,.62"/>
    <path class="cls-2" d="M61.04,18.2c.08-1.33-.18-2.34-.8-2.76-.04-.03-.08-.06-.12-.08-.14-.07-.29-.12-.45-.14-.05,0-.09,0-.14,0-.21,0-.43,.04-.65,.12-.46,.15-.95,.45-1.47,.87-.26,.21-.52,.45-.79,.71-.53,.53-1.08,1.17-1.61,1.9s-1.07,1.54-1.58,2.42c-.77,1.32-1.48,2.77-2.08,4.29-.6,1.52-1.1,3.1-1.43,4.67-.22,1.04-.36,2.08-.42,3.09-.02,.31-.02,.59,0,.86,0,.06,0,.13,0,.19,.02,.26,.04,.49,.08,.71,0,.02,.01,.04,.02,.06,.04,.2,.08,.37,.14,.54,.02,.04,.03,.08,.04,.12,.06,.17,.13,.32,.21,.46,.01,.02,.03,.04,.04,.06,.07,.12,.15,.22,.24,.31,.02,.02,.04,.05,.06,.07,.33,.32,.73,.49,1.17,.53,.08,0,.17,.01,.26,.01,.19,0,.38-.02,.58-.05-.04-.38-.05-.8-.03-1.28,.37-7.1,5.3-15.71,8.74-17.66"/>
    <path class="cls-2" d="M55.6,36.73h0s0,0-.01,.01c-.48,.47-.94,.91-1.39,1.32-.17,.15-.33,.28-.49,.42-.24,.21-.48,.42-.71,.61,0,0,0,0,0,0,0,0-.01,0-.02,.01h0s-.09,.07-.13,.11c-.13,.11-.26,.2-.39,.3-.28,.22-.56,.42-.83,.61-.14,.1-.28,.19-.41,.28-.28,.18-.55,.35-.82,.5-.1,.06-.21,.13-.31,.18-.36,.2-.71,.37-1.05,.51-.08,.04-.16,.06-.24,.09-.26,.11-.52,.2-.77,.28-.11,.03-.22,.06-.32,.09-.23,.06-.45,.11-.67,.15-.09,.02-.19,.04-.28,.05-.3,.04-.6,.07-.88,.07-.2,0-.41-.01-.6-.03-.33-.03-.64-.1-.94-.19-.09-.03-.18-.06-.26-.09-.22-.08-.43-.17-.63-.27-.08-.04-.16-.08-.24-.13-.26-.15-.5-.32-.72-.53,0,0,0,0-.02-.01h0s2.81,2.57,2.81,2.57c.76,.7,1.72,1.11,2.82,1.21,.2,.02,.4,.03,.6,.03,2.14,0,4.77-1.15,7.99-3.98-.91-.86-1.36-2.21-1.08-4.19"/>
    <path class="cls-2" d="M72.05,38.27l-2.57-2.35,.6,.57s0,0,0,0c-.44,.5-.88,.96-1.32,1.39-.09,.09-.18,.16-.26,.25-.36,.33-.71,.66-1.06,.95-.02,.02-.05,.04-.07,.06h0c-.28,.22-.56,.44-.84,.64h0s-.05,.03-.07,.05c-.12,.09-.23,.16-.35,.24-.26,.17-.52,.34-.77,.49-.11,.06-.22,.13-.33,.2-.33,.18-.67,.34-1,.49-.11,.05-.22,.09-.32,.13-.3,.12-.59,.22-.89,.31-.06,.02-.13,.04-.2,.06-.35,.09-.7,.16-1.06,.22-.09,.01-.18,.02-.26,.03-.36,.05-.72,.08-1.08,.08-.27,0-.53-.01-.79-.04-.3-.03-.59-.08-.86-.15-.09-.02-.17-.05-.25-.08-.18-.05-.36-.11-.52-.18-.09-.04-.18-.08-.26-.13-.15-.08-.29-.16-.42-.25-.08-.06-.16-.11-.23-.17-.04-.04-.1-.07-.14-.11l2.81,2.58c.68,.62,1.61,.97,2.7,1.07,.25,.02,.52,.04,.79,.04,3.03,0,6.09-1.57,9.2-4.84-.12-.49-.17-1.01-.14-1.54"/>
    <path class="cls-2" d="M64.74,35.67c-.04,.17-.08,.34-.11,.49-.02,.07-.03,.14-.04,.21-.03,.16-.05,.31-.07,.45,0,.04-.01,.09-.02,.13-.02,.17-.02,.33,0,.47,0,.03,0,.06,.01,.09,.01,.11,.03,.2,.06,.29,.01,.04,.03,.07,.04,.1,.03,.07,.07,.14,.11,.19,.02,.03,.04,.05,.06,.07,.15,.15,.35,.24,.62,.27,.06,0,.12,0,.19,0,.59,0,1.34-.28,2.17-.89,.03-.11,.06-.21,.09-.33l6.65-20.2-2.81-2.58-6.65,20.2s0,0,0,0c-.09,.28-.16,.54-.23,.79-.02,.08-.04,.15-.06,.22"/>
    <path class="cls-2" d="M82.22,34.4c1.51,.88,3.3,1.45,5.27,1.65,.49,.05,.99,.07,1.5,.07,6.86,0,13.6-4.21,13.92-10.42,.13-2.46-.9-4.48-2.54-5.98l-.88-.8h5.59s.41-1.33,.41-1.33l-2.81-2.58-.41,1.33h-5.72c.67,.48,1.26,1.02,1.77,1.63l.08,.07c.07,.08,.13,.17,.19,.25,.05,.06,.09,.12,.13,.17,.17,.23,.32,.47,.46,.72,.03,.05,.05,.09,.07,.14,.11,.21,.22,.44,.31,.66,.03,.07,.06,.14,.08,.21,.1,.27,.19,.55,.26,.84,0,.03,.01,.06,.02,.1,.06,.26,.1,.53,.13,.81,0,.08,.02,.16,.02,.24,.02,.31,.03,.63,.02,.95h0s0,.04,0,.05c-.02,.37-.06,.73-.13,1.08-.02,.13-.06,.25-.09,.38-.05,.24-.1,.47-.18,.7-.05,.15-.11,.29-.17,.43-.08,.2-.14,.4-.23,.59-.07,.15-.16,.3-.24,.45-.09,.18-.18,.35-.28,.53-.09,.15-.2,.29-.3,.44-.11,.16-.21,.32-.33,.47-.12,.15-.25,.29-.37,.43-.12,.14-.23,.28-.36,.41-.14,.15-.29,.28-.44,.42-.13,.12-.25,.25-.39,.36-.16,.14-.33,.27-.5,.4-.14,.11-.27,.22-.41,.32-.18,.13-.37,.25-.56,.37-.14,.09-.28,.19-.42,.27-.2,.12-.41,.23-.62,.34-.14,.08-.29,.16-.43,.23-.22,.11-.45,.21-.67,.3-.15,.06-.29,.13-.44,.19-.23,.09-.47,.18-.71,.26-.15,.05-.29,.11-.45,.15-.25,.08-.49,.15-.75,.21-.15,.04-.3,.08-.45,.12-.26,.06-.51,.11-.77,.16-.15,.03-.31,.06-.46,.09-.26,.04-.52,.08-.78,.11-.15,.02-.31,.04-.47,.05-.26,.02-.52,.04-.79,.05-.11,0-.22,.02-.33,.02,0,0,0,0,0,0-.09,0-.18,0-.28,.01h0s-.08,0-.12,0c-.25,0-.5-.02-.75-.04-.25-.01-.51-.01-.75-.04-1.97-.19-3.76-.77-5.27-1.65h0c-.16,.08-.28,.17-.41,.25-.15,.09-.31,.18-.43,.29-.08,.07-.15,.14-.22,.21-.11,.1-.22,.2-.3,.31-.08,.1-.12,.2-.18,.31-.05,.09-.11,.18-.15,.27-.08,.2-.12,.4-.14,.61,0,.11,0,.22,.03,.32,0,.03,.02,.06,.03,.09,.03,.08,.06,.15,.1,.22,.02,.03,.04,.07,.06,.1,.06,.08,.12,.16,.2,.24,.02,.02,.03,.03,.05,.05,.46,.43,1.28,.79,2.45,1.07,.21-.68,.77-1.3,1.72-1.76"/>
    <path class="cls-2" d="M77.72,30.56l.51,.46s.02,0,.03-.01c-.18-.14-.36-.3-.53-.45"/>
    <path class="cls-2" d="M88.49,46.26c-.14-.07-.29-.14-.45-.2-.1-.04-.19-.08-.3-.12-.19-.06-.39-.12-.6-.17-.1-.02-.19-.05-.3-.08-.32-.07-.67-.14-1.04-.19,0,0,0,0,0,0l-6.18-1.09c-.85-.11-1.61-.26-2.3-.44-.34-.09-.66-.19-.97-.3-.3-.11-.59-.23-.85-.36-.16,.09-.32,.19-.47,.3-.1,.07-.2,.15-.29,.22-.08,.07-.17,.13-.25,.21-.09,.08-.18,.17-.27,.26-.08,.08-.15,.17-.23,.25-.08,.09-.16,.19-.23,.29-.07,.1-.14,.2-.21,.3-.07,.1-.13,.2-.19,.31-.06,.11-.12,.23-.18,.35-.05,.11-.11,.21-.15,.32-.06,.13-.11,.27-.15,.41-.04,.11-.08,.21-.11,.31-.05,.16-.08,.33-.12,.5-.02,.09-.05,.18-.06,.28-.05,.26-.08,.53-.09,.8,0,0,0,.01,0,.01-.02,.41,0,.81,.05,1.19,.02,.12,.06,.23,.09,.35,.05,.25,.1,.5,.18,.73,.05,.13,.13,.25,.19,.38,.09,.2,.18,.4,.3,.58,.08,.13,.2,.24,.3,.35,.13,.16,.26,.33,.42,.48,.47,.44,1.07,.8,1.76,1.1-.35-.76-.52-1.62-.48-2.58,.12-2.3,1.36-4.26,3.01-5.13,1.06,.52,2.41,.86,4.12,1.09l6.18,1.09c.49,.07,.93,.16,1.34,.27-.06-.7-.35-1.26-.86-1.68-.1-.09-.22-.16-.34-.24-.09-.05-.17-.11-.26-.16"/>
    <path class="cls-2" d="M73.89,42.41c-.1-.08-.2-.16-.29-.25l.27,.25s.01,0,.02,0Z"/>
    <path class="cls-2" d="M83.1,27.9c0,.1,0,.2,.02,.3,.02,.31,.05,.6,.09,.87,0,.05,.01,.11,.02,.16,.05,.31,.12,.59,.2,.85,.02,.06,.04,.12,.06,.19,.07,.2,.14,.39,.23,.56,.02,.05,.05,.1,.07,.15,.11,.2,.22,.38,.35,.53,.03,.03,.05,.06,.08,.09,.42,.48,.93,.74,1.47,.79,.07,0,.15,.01,.22,.01,.09,0,.17-.02,.26-.03-.21-.82-.31-1.82-.25-3.09,.28-5.44,2.92-11.14,5.97-11.42-.25-1.06-.69-1.77-1.23-2.17-.02-.02-.04-.03-.06-.05-.14-.1-.29-.17-.45-.23-.03-.01-.07-.02-.11-.04-.16-.05-.32-.09-.49-.11-.04,0-.08,0-.12,0-.04,0-.08,0-.12,0-.2,0-.39,.02-.58,.07-.39,.09-.76,.26-1.13,.51-.37,.25-.72,.57-1.06,.95-.68,.77-1.29,1.78-1.8,2.94-.38,.87-.72,1.83-.98,2.83-.35,1.34-.58,2.75-.65,4.14-.02,.43-.02,.82,0,1.2"/>
    <path class="cls-2" d="M95.99,40.73c.08,.09,.14,.18,.21,.26,.06,.08,.12,.15,.17,.22,.06,.09,.12,.19,.17,.28,.05,.08,.1,.15,.14,.24,.05,.1,.09,.2,.14,.3,.04,.08,.08,.16,.11,.24,.04,.11,.07,.22,.1,.33,.03,.08,.05,.16,.08,.24,.03,.12,.05,.24,.07,.37,.02,.08,.03,.16,.05,.24,.02,.14,.03,.28,.04,.42,0,.07,.02,.14,.02,.21,0,.22,0,.43,0,.66-.1,1.91-.86,3.68-2.14,5.21-.51,.61-1.11,1.19-1.78,1.72-3.01,2.39-7.53,3.89-12.71,3.89-1.04,0-2.06-.05-3.04-.15-.46-.05-.91-.1-1.35-.17-.14-.02-.27-.05-.41-.07-.31-.05-.62-.11-.91-.16-.14-.03-.29-.06-.43-.09-.3-.07-.6-.14-.89-.22-.11-.03-.23-.06-.34-.09-.39-.11-.78-.23-1.14-.36-.06-.02-.11-.04-.17-.06-.31-.11-.61-.23-.89-.35-.11-.05-.22-.1-.32-.15-.23-.11-.45-.22-.67-.33-.1-.06-.21-.11-.31-.17-.23-.13-.44-.26-.65-.4-.07-.05-.14-.09-.2-.13-.26-.19-.5-.38-.73-.58-.01,0-.02-.02-.03-.03l2.81,2.58c1.94,1.78,5.4,2.98,9.44,3.37,.98,.1,2,.15,3.04,.15,9.21,0,16.31-4.73,16.63-10.83,.09-1.78-.41-3.26-1.7-4.44l-2.81-2.58c.08,.07,.14,.14,.21,.21,.07,.07,.14,.14,.21,.21"/>
    <path class="cls-2" d="M125.72,16.36c.06,.08,.12,.15,.18,.23,.21,.29,.4,.59,.57,.92l.38-.24-1.8-1.65s.07,.08,.11,.12c.2,.19,.38,.4,.56,.62"/>
    <path class="cls-2" d="M115.87,36.68c-.48,.48-.95,.92-1.4,1.33-.17,.15-.32,.28-.49,.42-.24,.21-.48,.43-.72,.61,0,0,0,0,0,0,0,0,0,0-.02,.01h0s-.09,.07-.13,.11c-.13,.11-.26,.2-.39,.3-.28,.22-.56,.42-.83,.61-.14,.09-.28,.19-.41,.28-.28,.18-.55,.35-.81,.5-.11,.06-.21,.13-.31,.18-.36,.2-.71,.37-1.05,.51-.08,.03-.16,.06-.24,.09-.26,.11-.52,.2-.77,.28-.11,.03-.22,.06-.32,.09-.23,.06-.45,.11-.67,.15-.09,.02-.19,.04-.28,.05-.3,.04-.6,.07-.88,.07-.2,0-.41,0-.6-.03-.33-.03-.64-.1-.94-.19-.09-.03-.18-.06-.26-.09-.22-.07-.43-.16-.63-.27-.08-.04-.16-.08-.24-.13-.26-.15-.5-.33-.72-.53,0,0-.01,0-.02-.01h0l2.81,2.57c.76,.7,1.72,1.11,2.81,1.21,.2,.02,.4,.03,.6,.03,2.14,0,4.77-1.15,7.99-3.98-.91-.86-1.36-2.21-1.08-4.19"/>
    <path class="cls-2" d="M121.31,18.15c.08-1.33-.18-2.34-.8-2.76-.04-.03-.08-.06-.12-.08-.14-.07-.29-.12-.45-.14-.05,0-.09,0-.14,0-.62,0-1.35,.35-2.12,.98-.51,.42-1.05,.95-1.59,1.59-.54,.64-1.08,1.37-1.61,2.18-.36,.55-.71,1.14-1.05,1.75-1.37,2.45-2.54,5.33-3.17,8.18-.04,.18-.08,.36-.11,.54-.19,.97-.33,1.93-.37,2.86-.02,.31-.02,.59,0,.86,0,.06,0,.13,0,.19,.02,.25,.04,.49,.08,.71,0,.02,.01,.04,.02,.06,.04,.2,.08,.37,.14,.54,.02,.04,.03,.08,.04,.12,.06,.17,.13,.32,.21,.46,.01,.02,.03,.04,.04,.06,.07,.11,.15,.22,.24,.31,.02,.02,.04,.05,.06,.07,.33,.32,.73,.49,1.17,.53,.08,0,.17,.01,.26,.01,.19,0,.38-.02,.58-.05-.04-.38-.05-.8-.03-1.28,.37-7.1,5.3-15.71,8.74-17.66"/>
    <path class="cls-2" d="M125.3,34.6s0,.01,0,.02c-.09,.28-.16,.53-.23,.78-.02,.08-.04,.15-.06,.23-.04,.17-.08,.33-.11,.49-.02,.07-.03,.15-.04,.22-.03,.16-.05,.3-.07,.44,0,.04-.01,.09-.02,.14-.02,.17-.02,.33,0,.47,0,.03,0,.06,.01,.09,.01,.1,.03,.2,.06,.29,.01,.04,.02,.07,.04,.1,.03,.07,.07,.14,.11,.2,.02,.02,.04,.05,.06,.07,.15,.15,.35,.24,.62,.27,.06,0,.12,0,.19,0,.59,0,1.34-.28,2.17-.89,.03-.12,.06-.21,.09-.33l6.65-20.2-2.81-2.58-2.86,8.67-3.79,11.52Z"/>
    <path class="cls-2" d="M132.56,38.43l-2.81-2.58,.6,.57c-.44,.51-.89,.97-1.33,1.4-.09,.08-.17,.16-.26,.24-.35,.34-.71,.66-1.06,.95-.02,.02-.05,.04-.07,.06,0,0,0,0,0-.01-.28,.23-.56,.45-.84,.65h0s-.05,.03-.07,.05c-.12,.09-.24,.16-.35,.24-.26,.17-.51,.33-.77,.48-.11,.07-.22,.14-.34,.2-.33,.18-.67,.34-1,.49-.11,.05-.22,.09-.32,.13-.3,.12-.59,.22-.89,.31-.07,.02-.13,.04-.2,.06-.35,.1-.71,.17-1.06,.22-.09,.01-.18,.02-.27,.03-.36,.05-.72,.08-1.08,.08-.27,0-.53-.01-.79-.04-.3-.03-.59-.08-.86-.15-.09-.02-.17-.05-.25-.08-.18-.05-.36-.11-.53-.18-.09-.04-.18-.08-.26-.13-.15-.08-.29-.16-.42-.25-.08-.06-.16-.11-.23-.17-.04-.04-.1-.07-.14-.11l2.81,2.58c.68,.62,1.61,.97,2.7,1.07,.26,.02,.52,.04,.79,.04,3.24,0,6.51-1.77,9.83-5.52l.03-.1-.57-.54Z"/>
    <path class="cls-2" d="M138.05,17.72s-.08-.04-.11-.05c-.11-.05-.23-.1-.35-.14-.05-.01-.09-.03-.14-.04-.16-.04-.33-.07-.51-.09-.25-.03-.52-.03-.79-.01,0,0,0,0-.01,0l2.81,2.57s.03,0,.04,0c.1-1.17-.28-1.88-.94-2.24"/>
    <path class="cls-2" d="M152.08,16.16l-2.06-1.89-2.19,6.9c1.3-1.97,2.74-3.7,4.24-5.02"/>
    <path class="cls-2" d="M150.01,26.05c1.81-2.99,3.54-4.26,4.91-4.26,.08,0,.16,0,.23,.01,.89,.09,1.52,.67,2.2,1.26,.68,.59,1.41,1.18,2.5,1.29,.12,.01,.24,.02,.36,.02,2.23,0,4.1-1.84,4.23-4.37,.07-1.25-.33-2.28-1.08-2.96l-2.81-2.58s.07,.09,.11,.12c.1,.1,.2,.21,.28,.33,.06,.08,.11,.15,.16,.24,.08,.13,.14,.26,.21,.4,.04,.09,.08,.17,.11,.26,.05,.16,.09,.33,.13,.51,.02,.08,.04,.16,.05,.25,.03,.27,.05,.55,.03,.84-.07,1.26-.57,2.36-1.33,3.14-.57,.58-1.29,.99-2.09,1.16-.26,.06-.54,.08-.82,.08-.12,0-.25,0-.36-.02-.27-.03-.52-.08-.76-.16-.47-.16-.86-.41-1.22-.69-.18-.14-.35-.29-.52-.43-.34-.3-.67-.59-1.02-.82-.35-.23-.74-.4-1.18-.44h-.01c-.07,0-.15-.01-.22-.01-1.12,0-2.49,.87-3.94,2.83-.11,.15-.22,.29-.33,.45-.21,.31-.42,.63-.64,.98l-5.67,17.84h-9.15s2.81,2.58,2.81,2.58h9.15s5.67-17.84,5.67-17.84Z"/>
  </g>
  <polygon class="cls-2" points="162.78 16.27 165.57 18.83 166.39 16.27 162.78 16.27"/>
  <g>
    <path class="cls-2" d="M175.21,37.43c-.39,.39-.79,.77-1.19,1.11-.09,.08-.18,.14-.27,.22-.22,.18-.43,.36-.65,.53,0,0,0,0,0-.01,0,0,0,0,0,0h.01c-.11,.09-.21,.16-.32,.24-.15,.11-.29,.21-.44,.31-.39,.27-.78,.52-1.18,.74-.09,.05-.18,.09-.28,.14-.33,.18-.66,.35-1,.49-.13,.06-.26,.12-.39,.17-.4,.16-.81,.31-1.21,.43-.04,.01-.08,.02-.13,.03-.38,.1-.75,.18-1.12,.24-.11,.02-.22,.03-.32,.05-.41,.05-.81,.09-1.21,.09-.01,0-.02,0-.03,0-.27,0-.52-.01-.77-.04h0c-.29-.03-.57-.08-.84-.14-.08-.02-.16-.04-.24-.06-.18-.05-.36-.11-.53-.17-.08-.03-.15-.06-.23-.09-.18-.08-.34-.17-.5-.26-.05-.03-.1-.05-.14-.08-.2-.13-.38-.27-.55-.42,0,0-.02-.01-.03-.02l2.81,2.58c.74,.68,1.76,1.12,3.06,1.25,.26,.03,.52,.04,.8,.04,3.6,0,7.6-2.14,11.26-6.45l-.49-.46-2.81-2.58,.49,.46c-.4,.47-.81,.91-1.22,1.33-.11,.11-.22,.23-.33,.33"/>
    <path class="cls-2" d="M184.75,17.67s-.1-.04-.15-.06c-.28-.12-.6-.21-.94-.24-.26-.03-.53-.03-.8-.01l.14-.58,.46-.09-1.91-1.75-.41,1.21h-4s-1.66,0-1.66,0h0l-5.53,17.32c-.09,.28-.15,.53-.2,.78-.01,.06-.02,.11-.03,.17-.03,.24-.06,.46-.05,.66,0,.02,0,.05,0,.07,0,.19,.03,.36,.07,.52,.01,.04,.02,.08,.03,.12,.05,.17,.11,.33,.19,.47,.01,.02,.03,.05,.05,.07,.07,.12,.16,.23,.25,.33,.02,.02,.04,.05,.06,.07,.37,.36,.88,.57,1.44,.63,.11,.01,.22,.02,.33,.02,.13,0,.27-.01,.4-.03,.03-.39,.11-.82,.27-1.31l5.53-17.32h5.66s.09-.28,.09-.28l1.62,1.48s.03,0,.04,0c.1-1.18-.28-1.89-.95-2.26"/>
  </g>
  <polygon class="cls-2" points="175.83 14.94 179.49 14.93 182.52 5.66 179.71 3.08 175.83 14.94"/>
  <g>
    <path class="cls-2" d="M190.09,34.54s0,0,0,0c-.09,.28-.17,.53-.25,.77-.02,.08-.04,.15-.06,.22-.05,.17-.09,.33-.12,.48-.02,.07-.03,.14-.05,.21-.03,.16-.06,.3-.07,.44,0,.05-.02,.09-.02,.14-.02,.17-.02,.33-.02,.48,0,.03,0,.06,.01,.08,.01,.11,.03,.21,.06,.3,.01,.04,.02,.07,.04,.11,.03,.07,.07,.14,.11,.2,.02,.03,.04,.05,.06,.08,.14,.15,.35,.25,.61,.27,.06,0,.12,0,.18,0,.63,0,1.39-.29,2.23-.92,.03-.1,.06-.19,.09-.3l4.4-13.06,2.43-7.25-2.81-2.57-2.43,7.25-4.39,13.06Z"/>
    <path class="cls-2" d="M195.88,37.08l-1.4-1.28,.6,.58c-.44,.5-.88,.96-1.32,1.39-.08,.08-.17,.15-.25,.23-.36,.34-.72,.67-1.08,.96-.02,.01-.03,.03-.05,.05,0,0,0,0,0,0-.29,.24-.58,.46-.87,.66h0s-.05,.04-.08,.06c-.13,.09-.25,.17-.38,.25-.26,.17-.52,.33-.77,.48-.12,.07-.23,.14-.35,.2-.34,.18-.68,.34-1.02,.48-.12,.05-.23,.09-.34,.14-.3,.12-.6,.22-.91,.31-.07,.02-.13,.05-.2,.06-.36,.1-.72,.17-1.08,.22-.09,.01-.18,.03-.28,.04-.37,.05-.74,.07-1.1,.07-.28,0-.54-.01-.8-.04,0,0,0,0,0,0-.24-.02-.46-.06-.68-.11-.07-.01-.13-.03-.19-.05-.15-.04-.31-.08-.45-.14-.06-.02-.12-.04-.18-.07-.17-.07-.33-.15-.49-.24-.02-.01-.04-.02-.06-.03-.17-.1-.32-.22-.46-.35-.01-.01-.03-.02-.04-.03l2.81,2.58c.63,.57,1.49,.9,2.55,1,.26,.02,.52,.04,.8,.04,2.73,0,5.52-1.23,8.29-3.78-.41-.6-.62-1.36-.57-2.2,.03-.54,.16-1.03,.34-1.48"/>
    <path class="cls-2" d="M198.64,1.79c.17,.2,.32,.42,.46,.66,.02,.03,.04,.06,.05,.09,.13,.24,.24,.49,.33,.75,.02,.05,.03,.1,.05,.15,.08,.26,.15,.54,.19,.82,0,.05,0,.09,.02,.14,.03,.3,.05,.6,.04,.92-.1,1.94-1.17,3.64-2.72,4.64-.65,.42-1.38,.71-2.16,.85-.33,.06-.67,.1-1.02,.1-.18,0-.36,0-.53-.03h-.03c-.32-.03-.62-.09-.91-.18-.09-.03-.18-.06-.27-.09-.19-.07-.38-.14-.56-.23-.1-.05-.19-.1-.28-.15-.16-.09-.32-.19-.47-.31-.08-.06-.17-.12-.25-.19-.04-.04-.09-.06-.13-.1l2.81,2.58c.75,.69,1.73,1.14,2.86,1.25,.18,.02,.37,.03,.56,.03,3.09,0,5.73-2.48,5.89-5.59,.08-1.6-.52-3.02-1.58-3.99l-2.81-2.58c.14,.13,.27,.27,.4,.41,.02,.02,.03,.04,.05,.06"/>
    <path class="cls-2" d="M205.29,18.03c-.11-.09-.24-.16-.37-.23-.06-.03-.13-.07-.2-.09-.14-.06-.29-.11-.45-.16-.07-.02-.14-.04-.21-.06-.24-.06-.5-.1-.78-.13-.11-.01-.23-.02-.35-.03l2.81,2.58c.12,0,.24,.02,.36,.03,.16,.01,.3,.04,.44,.07-.29-.83-.62-1.44-1.1-1.86-.04-.04-.09-.07-.14-.11"/>
    <path class="cls-2" d="M209.65,32.22l-3.55,4.55c-1.08,1.4-2.02,2.51-2.9,3.35-1.46,1.4-2.77,2.04-4.3,2-.12,0-.24-.01-.36-.02,0,0,0,0,0,0-.23-.02-.45-.07-.66-.12-.07-.02-.13-.04-.19-.06-.14-.05-.27-.09-.4-.15-.07-.03-.13-.07-.19-.1-.11-.06-.22-.13-.32-.21-.05-.04-.11-.08-.16-.12-.02-.02-.05-.04-.08-.06l2.81,2.58c.49,.45,1.17,.75,2.01,.83,.12,.01,.23,.02,.36,.02,2.46,.06,4.32-1.61,7.2-5.35l1.88-2.41-1.14-4.71Z"/>
  </g>
  <polygon class="cls-2" points="216.68 23.41 218.38 21.23 217.4 16.61 214.59 14.04 216.15 21.4 216.68 23.41"/>
  <g>
    <path class="cls-2" d="M226.35,36.46c-.37,.42-.74,.8-1.1,1.17-.1,.1-.19,.19-.29,.29-.35,.34-.7,.66-1.05,.96-.08,.07-.15,.12-.23,.18-.18,.15-.37,.3-.55,.44,0,0,0-.01,0-.01-.08,.06-.16,.12-.24,.18h0s-.08,.05-.11,.08c-.13,.1-.27,.18-.4,.27-.25,.16-.49,.31-.74,.45-.11,.06-.22,.14-.34,.2-.33,.18-.66,.33-.98,.47-.12,.05-.24,.1-.35,.14-.29,.11-.59,.21-.88,.3-.06,.02-.12,.04-.18,.05-.35,.09-.69,.16-1.04,.21-.09,.01-.18,.02-.27,.03-.36,.04-.71,.07-1.06,.07-.02,0-.03,0-.04,0-.31,0-.6-.01-.88-.04-.06,0-.11-.02-.16-.02-.23-.03-.46-.06-.68-.11-.1-.02-.19-.06-.28-.09-.16-.05-.33-.09-.49-.15-.11-.04-.2-.1-.31-.15-.13-.06-.27-.12-.39-.2-.1-.06-.19-.14-.28-.22-.11-.08-.23-.16-.34-.26l2.81,2.57c.79,.72,1.76,1.08,2.93,1.19,.29,.03,.6,.04,.92,.04,3.18,0,6.46-1.66,9.78-5.42-.02-.05-.03-.1-.05-.14l-2.71-2.49Z"/>
    <path class="cls-2" d="M229.71,15.34c.08,.13,.14,.27,.2,.41,.03,.08,.06,.16,.09,.24,.05,.15,.09,.32,.12,.48,.02,.07,.03,.15,.04,.23,.03,.25,.04,.5,.03,.77-.12,2.24-1.91,3.74-3.74,3.74-.12,0-.23,0-.35-.02-.44-.04-.83-.16-1.18-.33-.35-.16-.67-.37-.98-.57-.3-.2-.58-.4-.87-.56-.28-.16-.56-.27-.85-.3-.05,0-.09,0-.14,0-.37,0-.71,.14-1.14,.53-.16,.14-.33,.32-.52,.53-.32,.36-.69,.81-1.16,1.42l-.37,.49-.21,.28-1.63,2.16,3.01,11.39c.05,.17,.11,.33,.16,.48,.02,.05,.04,.09,.06,.14,.04,.1,.08,.2,.13,.29,.02,.05,.05,.09,.07,.14,.05,.08,.09,.16,.14,.23,.03,.04,.06,.08,.08,.12,.06,.07,.11,.14,.17,.2,.26,.27,.57,.43,.95,.47,.06,0,.12,0,.18,0,.22,0,.45-.05,.69-.13l-2.85-10.75,2.21-2.93c1.47-1.9,2.08-2.48,2.82-2.47,.05,0,.09,0,.14,0,.58,.06,1.12,.45,1.72,.86,.6,.4,1.28,.81,2.16,.9,.11,.01,.23,.02,.34,.02,1.83,0,3.62-1.5,3.74-3.74,.06-1.15-.3-2.17-1.02-2.83l-2.81-2.58s.06,.07,.09,.11c.12,.12,.23,.25,.32,.39,.05,.07,.08,.14,.12,.2"/>
    <path class="cls-2" d="M253.35,16.24c.06,.08,.12,.15,.18,.23,.21,.29,.4,.59,.57,.92l.37-.24-1.79-1.64s.07,.08,.11,.12c.2,.19,.38,.4,.56,.62"/>
    <path class="cls-2" d="M248.93,18.03c.08-1.33-.18-2.34-.8-2.76-.04-.03-.08-.06-.12-.08-.14-.07-.29-.13-.45-.14-.05,0-.1,0-.15,0-3.32,0-9.61,10.02-10.03,18.07-.02,.31-.02,.59,0,.86,0,.06,0,.12,0,.18,.02,.25,.04,.49,.08,.71,0,.02,0,.04,.01,.06,.04,.2,.08,.37,.14,.54,.01,.04,.03,.08,.04,.12,.06,.17,.13,.32,.21,.45,.01,.02,.03,.04,.04,.06,.07,.11,.15,.22,.24,.31,.02,.02,.04,.05,.06,.07,.33,.32,.73,.49,1.17,.53,.09,0,.17,.01,.26,.01,.19,0,.38-.02,.58-.05-.04-.38-.05-.79-.03-1.28,.37-7.1,5.3-15.71,8.74-17.66"/>
    <path class="cls-2" d="M243.5,36.56c-.48,.48-.95,.92-1.4,1.33-.17,.15-.32,.28-.49,.41-.24,.21-.48,.43-.72,.62,0,0,0,0,0,0,0,0-.01,.01-.02,.01h0s-.09,.07-.13,.11c-.13,.11-.26,.2-.39,.3-.28,.22-.56,.42-.83,.61-.14,.1-.28,.19-.41,.28-.28,.18-.55,.35-.82,.5-.1,.06-.21,.13-.31,.18-.36,.2-.71,.37-1.05,.52-.08,.03-.16,.06-.24,.09-.26,.11-.52,.2-.77,.28-.11,.03-.22,.06-.32,.09-.23,.06-.45,.11-.67,.15-.09,.02-.19,.04-.28,.05-.3,.04-.6,.07-.88,.07-.2,0-.41-.01-.6-.03h0c-.33-.03-.64-.1-.94-.19-.09-.03-.17-.06-.26-.09-.22-.07-.43-.16-.63-.27-.08-.04-.16-.08-.24-.13-.26-.15-.5-.32-.72-.53,0,0-.01,0-.02-.01h0s2.81,2.57,2.81,2.57c.76,.7,1.72,1.11,2.82,1.21,.2,.02,.4,.03,.6,.03,2.14,0,4.77-1.15,7.99-3.98-.91-.86-1.36-2.21-1.08-4.19"/>
    <path class="cls-2" d="M252.93,34.48c-.09,.28-.16,.54-.23,.79-.02,.08-.04,.15-.06,.22-.04,.17-.08,.34-.11,.49-.02,.07-.03,.14-.04,.21-.03,.16-.05,.31-.07,.45,0,.04-.01,.09-.02,.13-.02,.17-.02,.33,0,.47,0,.03,.01,.06,.01,.09,.01,.1,.03,.2,.06,.28,.01,.04,.03,.07,.04,.11,.03,.07,.07,.14,.11,.2,.02,.02,.03,.05,.06,.07,.15,.15,.35,.24,.62,.27,.06,0,.12,0,.19,0,.58,0,1.33-.28,2.17-.89,.03-.11,.06-.21,.09-.33l6.65-20.2-2.81-2.58-6.65,20.2Z"/>
    <path class="cls-2" d="M247.4,43.37c.68,.62,1.61,.97,2.7,1.07,.25,.02,.52,.04,.79,.04,3.26,0,6.55-1.79,9.9-5.59l-.6-.57-2.81-2.58,.6,.57s-.01,.01-.02,.02c-.44,.5-.88,.96-1.31,1.38-.09,.09-.18,.16-.26,.24-.35,.34-.71,.66-1.06,.95-.02,.02-.05,.04-.07,.06,0,0,0,0,0-.01-.28,.23-.56,.45-.84,.65h0s-.05,.03-.07,.05c-.12,.08-.23,.16-.35,.24-.26,.17-.52,.34-.78,.49-.11,.06-.22,.13-.33,.19-.34,.18-.67,.34-1,.49-.11,.05-.22,.09-.32,.13-.3,.12-.59,.22-.89,.31-.06,.02-.13,.04-.19,.06-.35,.1-.71,.16-1.06,.22-.09,.01-.18,.03-.27,.04-.36,.05-.72,.07-1.08,.08h0c-.27,0-.53-.01-.79-.04-.3-.03-.59-.08-.86-.15-.09-.02-.17-.05-.25-.08-.18-.05-.36-.11-.53-.18-.09-.04-.18-.08-.26-.13-.15-.08-.29-.16-.43-.25-.08-.06-.16-.11-.23-.17-.05-.04-.1-.07-.14-.11l2.81,2.58Z"/>
    <path class="cls-1" d="M32.69,41.41h.2l4.14-10.18,1.69-4.15h-1.03c-5.01,7.31-12.74,13.13-18.86,13.13h-3.89S24.29,7.71,24.29,7.71c.66-2.27,1.66-3.71,2.8-4.61,1.13-.9,2.4-1.26,3.57-1.38l.2-.57-19.1,.02-.2,.58c.18,.02,.35,.05,.52,.08,.04,0,.08,.02,.12,.03,.17,.04,.34,.09,.5,.14,.02,0,.03,.01,.04,.02,.15,.06,.29,.12,.42,.2,.03,.02,.07,.04,.1,.06,.14,.08,.28,.18,.4,.29,.44,.4,.76,.97,.88,1.79,.12,.84,.02,1.94-.38,3.38l-7.87,27.27c-1.32,4.54-3.72,5.64-6.08,5.87l-.2,.58,18.13-.02h14.55Z"/>
    <path class="cls-1" d="M52.33,37.15c-.2,.03-.39,.05-.58,.05-.09,0-.17,0-.26-.01-.44-.04-.84-.21-1.17-.53-.02-.02-.04-.04-.06-.07-.09-.09-.17-.19-.24-.31-.01-.02-.03-.04-.04-.06-.08-.14-.15-.29-.21-.46-.02-.04-.03-.08-.04-.12-.05-.16-.1-.34-.14-.54,0-.02,0-.04-.01-.06-.04-.21-.06-.45-.08-.71,0-.06,0-.12,0-.19,0-.27-.01-.55,0-.86,.05-1.01,.2-2.04,.42-3.09,.33-1.57,.82-3.15,1.43-4.67,.61-1.52,1.32-2.98,2.09-4.29,.51-.88,1.04-1.69,1.58-2.42,.54-.73,1.08-1.37,1.61-1.9,.26-.27,.53-.51,.78-.71,.52-.42,1.01-.71,1.47-.87,.23-.07,.45-.11,.65-.12,.05,0,.1,0,.15,0,.17,.02,.31,.07,.45,.14,.04,.02,.08,.05,.12,.08,.62,.42,.89,1.43,.8,2.76-.05,.76-.2,1.62-.49,2.53l-4.36,13.46-.28,.92c-1.32,1.22-2.49,1.86-3.58,2.02m5.17,4.35c.09,.05,.17,.09,.26,.13,.17,.07,.34,.13,.52,.18,.09,.03,.17,.06,.25,.08,.28,.07,.56,.12,.86,.15,.25,.03,.52,.04,.79,.04,.36,0,.72-.03,1.08-.07,.09-.01,.18-.02,.27-.03,.35-.05,.7-.12,1.06-.22,.06-.02,.13-.04,.19-.06,.3-.09,.59-.19,.89-.31,.11-.04,.22-.08,.32-.13,.33-.14,.67-.31,1-.49,.11-.06,.22-.13,.34-.2,.26-.15,.51-.31,.77-.49,.12-.08,.23-.15,.35-.24,.02-.01,.04-.04,.06-.05,.28-.2,.56-.42,.84-.65,.02-.02,.04-.03,.06-.05,.35-.29,.71-.62,1.06-.95,.09-.08,.18-.16,.26-.24,.44-.43,.88-.89,1.32-1.39,0,0,0,0,0,0l-.6-.57c-.6,.71-1.19,1.25-1.74,1.65-.83,.61-1.58,.89-2.17,.89-.07,0-.13,0-.19,0-.27-.03-.47-.12-.62-.27-.02-.02-.04-.05-.06-.07-.04-.06-.08-.12-.11-.19-.02-.03-.03-.07-.04-.1-.03-.09-.04-.18-.06-.29,0-.03,0-.06-.01-.09-.01-.14,0-.3,0-.47,0-.04,.01-.09,.02-.13,.02-.14,.04-.29,.07-.45,.01-.07,.03-.14,.04-.21,.03-.15,.07-.32,.12-.49,.02-.07,.04-.15,.06-.22,.07-.25,.14-.51,.23-.78,0,0,0,0,0,0l6.65-20.2-.51-.11-4.59,2.98-.38,.24c-.17-.33-.37-.64-.57-.92-.06-.08-.12-.16-.18-.23-.18-.22-.36-.43-.56-.62-1.05-1.01-2.39-1.61-3.87-1.75-.25-.02-.5-.04-.75-.04-7.72,.01-19.09,10.78-19.63,21.36-.14,2.63,.57,4.56,1.83,5.72,0,0,.01,0,.02,.01,.22,.2,.47,.37,.72,.53,.08,.05,.16,.09,.24,.13,.2,.1,.41,.19,.63,.27,.09,.03,.17,.06,.26,.09,.3,.09,.62,.15,.94,.19,.2,.02,.4,.03,.6,.03,.28,0,.58-.03,.88-.07,.09-.01,.19-.03,.28-.05,.22-.04,.44-.09,.67-.15,.11-.03,.22-.06,.32-.09,.25-.08,.51-.17,.77-.28,.08-.03,.16-.06,.24-.1,.34-.15,.69-.32,1.05-.51,.1-.06,.21-.12,.31-.18,.27-.16,.54-.32,.81-.5,.14-.09,.28-.18,.41-.28,.27-.19,.55-.39,.83-.61,.13-.1,.26-.19,.39-.3,.04-.03,.09-.07,.13-.11,0,0,.01,0,.02-.01,.23-.19,.47-.39,.71-.6,.17-.14,.32-.27,.49-.42,.45-.41,.91-.84,1.39-1.32,0,0,0,0,.01-.01-.28,1.98,.17,3.33,1.08,4.19,.05,.05,.1,.11,.16,.15,.07,.06,.15,.12,.23,.17,.13,.09,.28,.18,.42,.25"/>
    <path class="cls-1" d="M89.09,46.66c.51,.43,.8,.98,.86,1.68,.01,.16,.03,.32,.02,.49-.15,2.99-3.49,5.64-9.15,5.64-.64,0-1.23-.03-1.8-.08-1.27-.12-2.34-.4-3.24-.79-.69-.3-1.29-.66-1.76-1.1-.16-.15-.28-.32-.42-.48-.1-.12-.22-.23-.3-.35-.12-.18-.2-.39-.3-.58-.06-.13-.14-.25-.19-.38-.09-.23-.13-.48-.18-.73-.03-.12-.07-.23-.09-.35-.05-.38-.07-.77-.05-1.19v-.02c.02-.27,.05-.54,.09-.8,.02-.09,.04-.18,.06-.28,.04-.17,.07-.33,.12-.5,.03-.11,.07-.21,.11-.31,.05-.14,.1-.28,.15-.41,.05-.11,.1-.21,.15-.32,.06-.12,.12-.24,.18-.35,.06-.11,.13-.21,.2-.31,.07-.1,.13-.2,.21-.3,.08-.1,.15-.2,.23-.29,.07-.09,.15-.17,.23-.25,.09-.09,.18-.18,.27-.26,.08-.07,.16-.14,.25-.21,.1-.08,.19-.15,.29-.22,.15-.11,.31-.21,.47-.3,.26,.13,.55,.25,.85,.36,.3,.11,.62,.21,.97,.3,.68,.18,1.45,.32,2.3,.43l6.18,1.09s0,0,0,0c.37,.05,.72,.11,1.04,.19,.11,.02,.2,.05,.29,.08,.21,.05,.42,.11,.6,.17,.11,.04,.2,.08,.3,.12,.16,.06,.31,.13,.45,.2,.09,.05,.18,.11,.26,.16,.12,.08,.23,.16,.34,.24m-4.35-26.94c.51-1.16,1.12-2.18,1.8-2.94,.34-.38,.69-.71,1.06-.95,.37-.25,.74-.42,1.13-.51,.19-.04,.39-.07,.58-.07h0s.08,0,.12,0c.04,0,.08,0,.12,0,.17,.02,.33,.06,.49,.11,.03,.01,.07,.02,.11,.04,.15,.06,.3,.13,.45,.23,.02,.02,.04,.03,.06,.05,.54,.4,.98,1.11,1.23,2.17,.19,.79,.28,1.75,.22,2.97-.28,5.37-2.9,11.21-5.94,11.54-.09,0-.17,.03-.26,.03-.07,0-.15,0-.22-.01-.54-.05-1.05-.31-1.47-.79-.03-.03-.05-.06-.08-.09-.13-.16-.24-.33-.35-.53-.03-.05-.05-.1-.07-.15-.08-.17-.16-.36-.23-.56-.02-.06-.05-.12-.06-.19-.08-.26-.15-.54-.2-.85,0-.05-.01-.11-.02-.16-.04-.27-.07-.56-.09-.87,0-.1-.01-.2-.01-.3-.01-.38-.02-.77,0-1.2,.07-1.4,.3-2.81,.65-4.14,.26-1,.59-1.96,.98-2.83m-6.73,15.32c-.08-.08-.15-.16-.2-.24-.02-.03-.04-.06-.06-.1-.04-.07-.08-.15-.1-.22-.01-.03-.02-.06-.03-.09-.03-.11-.04-.21-.03-.32,.01-.21,.06-.41,.14-.61,.03-.09,.1-.18,.15-.27,.06-.1,.11-.21,.18-.31,.08-.11,.2-.21,.3-.31,.07-.07,.14-.14,.22-.21,.13-.1,.28-.19,.43-.29,.14-.09,.26-.18,.41-.25,1.51,.87,3.3,1.45,5.27,1.65,.25,.02,.5,.02,.75,.04,.25,.01,.49,.04,.75,.03,.04,0,.08,0,.12,0,.09,0,.19,0,.28-.01,.11,0,.22,0,.34-.01,.26-.01,.52-.02,.79-.05,.16-.01,.31-.03,.47-.05,.26-.03,.52-.06,.78-.11,.15-.02,.31-.06,.46-.09,.26-.05,.52-.1,.77-.16,.15-.04,.3-.08,.45-.12,.25-.07,.5-.14,.75-.21,.15-.05,.3-.1,.45-.16,.24-.08,.48-.17,.71-.26,.15-.06,.29-.13,.44-.19,.22-.1,.45-.2,.67-.3,.15-.07,.29-.15,.43-.23,.21-.11,.42-.22,.62-.34,.15-.09,.28-.18,.42-.27,.19-.12,.38-.24,.56-.37,.14-.1,.27-.21,.41-.32,.17-.13,.34-.26,.5-.4,.14-.12,.26-.24,.39-.37,.15-.14,.3-.28,.44-.42,.13-.14,.24-.28,.36-.42,.12-.14,.25-.29,.37-.43,.12-.15,.22-.31,.33-.47,.1-.15,.21-.29,.3-.44,.11-.17,.19-.35,.28-.52,.08-.15,.17-.3,.24-.45,.09-.19,.16-.39,.23-.59,.05-.15,.12-.29,.17-.43,.07-.23,.12-.47,.18-.71,.03-.12,.07-.25,.09-.37,.06-.35,.11-.71,.13-1.08,0-.02,0-.03,0-.05h0c.02-.33,0-.64-.02-.95,0-.08-.02-.16-.02-.24-.03-.28-.07-.54-.13-.81,0-.03-.01-.06-.02-.1-.07-.29-.16-.56-.26-.84-.03-.07-.06-.14-.08-.21-.09-.23-.2-.45-.31-.66-.02-.05-.05-.09-.07-.14-.14-.25-.29-.49-.46-.72-.04-.06-.09-.12-.13-.17-.08-.11-.18-.22-.27-.32-.51-.61-1.1-1.16-1.77-1.63h5.72s.41-1.33,.41-1.33h-8.46c-1.22-.51-2.56-.83-3.85-.96-.42-.04-.84-.06-1.24-.06-6.75,0-13.66,4.33-13.99,10.6-.13,2.59,1.06,4.83,3.1,6.44,0,0-.02,0-.02,.01-3.6,1.38-6.01,3.86-6.18,7.19,0,.02,0,.04,0,.06-.02,.53,.02,1.05,.14,1.54,.24,.97,.77,1.85,1.7,2.6,0,0-.01,0-.02,0-3.9,.35-7.23,2.94-7.39,5.99-.07,1.4,.56,2.65,1.71,3.69,.22,.2,.46,.4,.72,.58,.06,.05,.14,.09,.2,.13,.21,.14,.42,.28,.65,.4,.1,.06,.2,.11,.31,.17,.21,.11,.44,.22,.66,.33,.11,.05,.21,.1,.32,.15,.29,.12,.59,.24,.9,.36,.06,.02,.11,.04,.16,.06,.37,.13,.75,.25,1.14,.36,.11,.03,.23,.06,.34,.09,.29,.08,.58,.15,.89,.22,.14,.03,.28,.06,.43,.09,.3,.06,.6,.12,.91,.17,.14,.02,.27,.05,.41,.07,.45,.07,.89,.12,1.35,.17,.98,.1,2,.15,3.04,.14,5.18,0,9.69-1.5,12.71-3.89,.67-.53,1.26-1.11,1.78-1.72,1.28-1.54,2.04-3.31,2.14-5.21,.01-.22,.01-.45,0-.66,0-.07-.01-.14-.02-.21,0-.14-.02-.28-.04-.42-.01-.08-.03-.16-.04-.24-.02-.12-.04-.25-.07-.37-.02-.08-.05-.16-.07-.24-.03-.11-.06-.22-.11-.33-.03-.08-.07-.16-.11-.24-.05-.1-.09-.21-.14-.31-.04-.08-.09-.16-.14-.23-.06-.1-.11-.19-.17-.28-.05-.08-.12-.15-.17-.23-.07-.09-.13-.18-.21-.26-.06-.07-.14-.14-.21-.21-1.32-1.34-3.56-2.31-7-2.89l-7.6-1.31c-.24-.05-.46-.1-.68-.15-1.17-.28-1.98-.64-2.45-1.07-.02-.02-.03-.03-.04-.05"/>
    <path class="cls-1" d="M112.6,37.09c-.2,.03-.39,.05-.58,.05-.09,0-.17,0-.26-.01-.44-.04-.84-.21-1.17-.53-.02-.02-.04-.05-.06-.07-.09-.09-.17-.19-.24-.31-.01-.02-.03-.04-.04-.06-.08-.13-.15-.29-.21-.45-.02-.04-.03-.08-.04-.12-.05-.16-.1-.34-.14-.54,0-.02,0-.04-.01-.06-.04-.21-.06-.45-.08-.71,0-.06,0-.12,0-.19,0-.27-.01-.55,0-.86,.05-.93,.18-1.89,.37-2.86,.04-.18,.08-.36,.12-.54,.63-2.85,1.81-5.73,3.17-8.18,.34-.61,.69-1.2,1.05-1.75,.53-.81,1.07-1.54,1.61-2.18,.54-.64,1.08-1.18,1.59-1.59,.77-.63,1.5-.98,2.12-.98,.05,0,.1,0,.15,0,.17,.02,.31,.07,.45,.14,.04,.02,.08,.05,.12,.08,.62,.42,.89,1.43,.8,2.76-.05,.76-.2,1.62-.49,2.53l-4.36,13.46-.28,.92c-1.33,1.22-2.49,1.86-3.59,2.03m5.17,4.35c.09,.05,.17,.09,.26,.13,.17,.07,.34,.13,.53,.19,.08,.03,.17,.06,.25,.08,.28,.07,.56,.12,.86,.15,.25,.03,.52,.04,.79,.04,.36,0,.72-.03,1.08-.07,.09-.01,.18-.02,.27-.04,.35-.05,.7-.12,1.06-.22,.06-.02,.13-.04,.2-.06,.29-.09,.59-.19,.89-.31,.11-.04,.22-.08,.32-.13,.33-.14,.67-.31,1-.49,.11-.06,.22-.13,.34-.2,.26-.15,.51-.31,.77-.49,.12-.08,.24-.16,.35-.24,.02-.01,.04-.03,.06-.05,.28-.2,.56-.42,.84-.65,.02-.02,.04-.03,.07-.05,.35-.3,.71-.62,1.06-.96,.09-.08,.17-.16,.26-.24,.44-.43,.89-.9,1.33-1.4l-.6-.57c-.6,.71-1.19,1.25-1.74,1.65-.83,.61-1.58,.89-2.17,.89-.07,0-.13,0-.19-.01-.27-.03-.47-.12-.62-.27-.02-.02-.04-.05-.06-.07-.04-.06-.08-.12-.11-.19-.01-.03-.03-.07-.04-.11-.03-.09-.05-.18-.06-.29,0-.03-.01-.06-.01-.09,0-.14,0-.3,0-.47,0-.04,.01-.09,.02-.14,.02-.14,.04-.29,.07-.44,.01-.07,.03-.14,.04-.21,.03-.15,.07-.32,.11-.49,.02-.07,.04-.15,.06-.23,.07-.24,.14-.5,.23-.78,0,0,0-.01,0-.02l3.8-11.52,2.85-8.67-.51-.12-4.59,2.98-.38,.24c-.17-.33-.36-.64-.57-.92-.06-.08-.12-.16-.18-.23-.18-.22-.36-.43-.56-.62-1.05-1.01-2.39-1.61-3.87-1.75-.25-.02-.5-.04-.75-.04-7.72,0-19.09,10.78-19.63,21.36-.14,2.63,.57,4.56,1.83,5.71,0,0,0,0,.01,.01,.22,.2,.47,.37,.73,.53,.08,.05,.16,.09,.24,.13,.2,.1,.41,.19,.63,.27,.09,.03,.17,.06,.26,.09,.3,.09,.62,.15,.94,.19,.2,.02,.4,.03,.6,.03,.28,0,.58-.03,.88-.07,.09-.01,.19-.03,.28-.05,.22-.04,.44-.09,.67-.15,.11-.03,.22-.06,.32-.09,.25-.08,.51-.17,.77-.28,.08-.03,.16-.06,.24-.09,.34-.15,.69-.32,1.05-.52,.1-.06,.21-.12,.31-.18,.27-.15,.54-.32,.81-.5,.14-.09,.28-.18,.41-.28,.27-.19,.55-.39,.83-.61,.13-.1,.26-.19,.39-.3,.04-.03,.09-.07,.13-.11,0,0,.01,0,.02-.01,.23-.19,.48-.4,.72-.61,.16-.14,.32-.27,.49-.42,.46-.41,.92-.85,1.4-1.33-.28,1.98,.17,3.33,1.08,4.19,.05,.05,.1,.11,.15,.15,.08,.06,.15,.12,.23,.17,.13,.09,.28,.18,.42,.26"/>
    <path class="cls-1" d="M147.2,23.47c.21-.35,.42-.67,.63-.98,.11-.16,.22-.31,.33-.45,1.45-1.96,2.82-2.83,3.94-2.83,.08,0,.15,0,.22,0,0,0,0,0,.01,0,.45,.04,.83,.21,1.18,.44,.35,.23,.68,.53,1.02,.82,.17,.15,.34,.29,.52,.43,.36,.28,.75,.53,1.22,.69,.23,.08,.48,.14,.76,.16,.12,.01,.24,.02,.36,.02,.28,0,.55-.03,.82-.08,.79-.17,1.51-.57,2.08-1.16,.76-.78,1.26-1.87,1.33-3.14,.02-.29,0-.58-.03-.84-.01-.09-.04-.17-.05-.25-.03-.17-.07-.35-.13-.51-.03-.09-.07-.18-.11-.26-.06-.14-.13-.28-.2-.4-.05-.08-.11-.16-.16-.24-.09-.12-.18-.23-.28-.33-.57-.58-1.35-.95-2.31-1.04-.17-.02-.34-.03-.52-.03-1.91,0-3.88,1-5.76,2.64-1.51,1.32-2.95,3.05-4.24,5.02l2.19-6.9-.39-.17-13.35,2.71-.15,.58s0,0,.01,0c.27-.02,.54-.01,.79,.01,.18,.02,.35,.05,.51,.09,.05,.01,.09,.03,.14,.04,.12,.04,.24,.08,.35,.14,.04,.02,.08,.03,.11,.05,.66,.37,1.04,1.07,.94,2.24-.04,.44-.13,.93-.31,1.51l-5.55,17.51-.03,.1-.71,2.24h9.15s5.67-17.84,5.67-17.84Z"/>
    <path class="cls-1" d="M171.77,37.36c-.57-.06-1.07-.26-1.45-.62-.02-.02-.04-.05-.06-.07-.09-.1-.18-.21-.25-.33-.02-.03-.03-.05-.05-.07-.08-.14-.14-.3-.18-.47-.01-.04-.02-.08-.03-.12-.04-.16-.06-.34-.07-.52,0-.02,0-.05,0-.07,0-.2,.02-.43,.05-.66,0-.06,.02-.11,.03-.17,.05-.25,.11-.5,.2-.78l5.53-17.32h5.66s.4-1.21,.4-1.21h-2.06s-3.65,0-3.65,0l3.88-11.85h-.86c-3.92,5.12-11.4,11.46-15.86,12.55l-.2,.63h3.6s-.82,2.56-.82,2.56l-4.99,15.62c-.83,2.62-.5,5.07,1.08,6.49,.17,.15,.35,.29,.55,.42,.05,.03,.1,.05,.14,.08,.16,.09,.33,.18,.5,.26,.08,.03,.15,.06,.23,.09,.17,.07,.35,.12,.53,.17,.08,.02,.15,.05,.24,.06,.26,.06,.54,.11,.84,.14,0,0,0,0,0,0,.25,.02,.5,.03,.77,.04h.03c.4,0,.8-.04,1.21-.09,.11-.01,.22-.03,.32-.05,.37-.06,.75-.14,1.12-.24,.04-.01,.09-.02,.13-.03,.4-.12,.8-.26,1.21-.43,.13-.05,.26-.11,.39-.17,.33-.15,.67-.31,1-.49,.09-.05,.18-.09,.27-.14,.39-.22,.78-.47,1.18-.74,.15-.1,.29-.21,.44-.32,.1-.07,.21-.16,.31-.24,0,0,0,0,0,0,.22-.17,.44-.33,.66-.51,.09-.07,.18-.14,.27-.22,.4-.34,.79-.72,1.19-1.11,.11-.11,.22-.22,.33-.33,.41-.42,.82-.86,1.22-1.34l-.49-.46c-1.24,1.19-2.55,1.91-3.77,2.04-.14,.02-.27,.03-.4,.03-.11,0-.22,0-.33-.02"/>
    <path class="cls-1" d="M182.22,41.33c.15,.09,.32,.17,.49,.24,.06,.03,.12,.05,.18,.07,.14,.05,.29,.1,.45,.14,.06,.02,.13,.03,.19,.05,.22,.05,.44,.08,.68,.11,0,0,0,0,0,0,.26,.03,.52,.04,.8,.04,.37,0,.74-.03,1.1-.08,.09-.01,.18-.02,.28-.04,.36-.05,.72-.12,1.08-.22,.06-.02,.13-.04,.2-.06,.3-.09,.6-.19,.91-.31,.11-.05,.23-.09,.34-.14,.34-.14,.68-.3,1.02-.48,.12-.06,.23-.13,.35-.2,.26-.15,.51-.31,.77-.48,.13-.08,.25-.16,.38-.25,.03-.02,.05-.04,.08-.06,.29-.21,.58-.43,.87-.66,.02-.01,.03-.03,.05-.04,.36-.3,.72-.62,1.08-.96,.08-.08,.17-.14,.25-.23,.44-.43,.88-.89,1.32-1.39l-.6-.58c-.59,.69-1.15,1.22-1.68,1.62-.84,.63-1.59,.91-2.23,.91-.06,0-.13,0-.18,0-.27-.03-.47-.12-.62-.27-.02-.02-.04-.05-.06-.08-.04-.06-.08-.12-.11-.2-.01-.03-.03-.07-.04-.11-.03-.09-.04-.19-.05-.3,0-.03-.01-.06-.01-.09,0-.14,0-.3,.02-.48,0-.04,.01-.09,.02-.14,.02-.14,.04-.28,.07-.44,.02-.07,.03-.14,.05-.21,.03-.15,.08-.31,.12-.48,.02-.07,.04-.15,.06-.22,.07-.24,.15-.5,.24-.77,0,0,0,0,0,0l4.39-13.06,2.43-7.25-.39-.17-13.06,2.63-.46,.09-.14,.58c.28-.02,.55-.01,.81,.01,.35,.03,.66,.12,.94,.25,.05,.02,.11,.04,.15,.06,.67,.36,1.06,1.08,.95,2.26-.04,.44-.13,.92-.32,1.5l-4.14,12.66c-1.15,3.5-.86,5.71,.45,6.87,.14,.13,.29,.25,.46,.35,.02,.01,.04,.02,.06,.03"/>
    <path class="cls-1" d="M190.6,9.72c.08,.07,.16,.13,.25,.19,.15,.11,.3,.21,.47,.31,.09,.05,.18,.11,.28,.15,.18,.09,.37,.16,.56,.23,.09,.03,.18,.07,.27,.09,.29,.08,.59,.14,.91,.18h.02c.18,.02,.35,.03,.54,.03,.35,0,.69-.04,1.02-.1,.78-.14,1.51-.43,2.16-.85,1.54-1,2.61-2.69,2.71-4.64,.02-.31,0-.62-.03-.92,0-.05,0-.09-.02-.14-.04-.28-.1-.55-.19-.82-.02-.05-.03-.1-.05-.15-.09-.26-.2-.51-.33-.75-.02-.03-.04-.06-.05-.09-.14-.23-.29-.45-.46-.66-.02-.02-.03-.04-.05-.06-.8-.93-1.95-1.55-3.31-1.68-.18-.02-.37-.03-.56-.03-3.03,0-5.67,2.42-5.83,5.59-.09,1.67,.57,3.15,1.7,4.11"/>
    <path class="cls-1" d="M213.68,41.37c.1,.05,.2,.11,.31,.15,.15,.06,.32,.1,.49,.15,.09,.03,.18,.07,.28,.09,.22,.05,.45,.08,.68,.11,.06,0,.11,.02,.16,.03,.28,.03,.58,.04,.88,.04h.04c.35,0,.71-.03,1.06-.07,.09,0,.18-.02,.28-.03,.35-.05,.69-.12,1.04-.21,.06-.01,.12-.04,.18-.05,.29-.08,.59-.18,.88-.3,.12-.05,.24-.09,.35-.14,.33-.14,.66-.29,.98-.47,.11-.06,.22-.13,.33-.19,.25-.14,.49-.29,.74-.46,.14-.09,.27-.18,.4-.27,.03-.03,.07-.06,.11-.08,.08-.06,.16-.12,.24-.18,.19-.14,.37-.28,.56-.43,.08-.06,.15-.12,.23-.18,.35-.3,.7-.62,1.05-.96,.09-.09,.19-.19,.29-.29,.37-.37,.73-.75,1.1-1.17l-.6-.52c-1.17,1.21-2.18,1.96-3.03,2.23-.24,.08-.47,.13-.69,.13-.06,0-.12,0-.18,0-.37-.04-.68-.2-.95-.47-.06-.06-.12-.12-.17-.19-.03-.04-.06-.08-.08-.12-.05-.07-.1-.15-.14-.23-.03-.05-.05-.09-.08-.14-.05-.09-.09-.19-.13-.29-.02-.05-.04-.09-.06-.14-.06-.15-.11-.31-.16-.48l-3.01-11.39,1.63-2.16,.21-.28,.37-.49c.47-.6,.84-1.06,1.16-1.42,.19-.21,.36-.39,.52-.53,.43-.38,.76-.53,1.14-.53,.05,0,.09,0,.14,0,.29,.03,.57,.14,.85,.3,.28,.16,.57,.35,.87,.56,.3,.2,.62,.4,.98,.57,.35,.16,.74,.29,1.18,.33,.11,.01,.23,.02,.34,.02,1.83,0,3.62-1.5,3.74-3.74,.01-.26,0-.52-.03-.77,0-.08-.03-.15-.04-.23-.03-.17-.07-.33-.12-.48-.03-.08-.06-.16-.09-.24-.06-.14-.12-.28-.2-.41-.04-.07-.08-.14-.12-.2-.1-.14-.21-.27-.33-.39-.47-.48-1.11-.8-1.91-.88-.13-.01-.27-.02-.41-.02-2.06,0-3.91,1.44-6.54,4.78l-2.03,2.6-1.7,2.18-.53-2.01-1.56-7.36-.39-.17-11.13,2.94-.14,.52c.12,0,.24,.02,.36,.03,.29,.03,.54,.07,.78,.13,.08,.02,.14,.04,.21,.06,.16,.05,.31,.1,.45,.16,.07,.03,.13,.06,.2,.09,.13,.07,.25,.15,.37,.24,.05,.04,.1,.07,.14,.11,.48,.42,.82,1.03,1.1,1.86,.19,.56,.37,1.21,.55,1.99l2.17,8.85-2.69,3.45c-1.47,1.9-2.17,2.25-2.75,2.24-.05,0-.09,0-.13,0-.59-.06-1.12-.49-1.74-.94-.62-.45-1.31-.9-2.22-.99-.11-.01-.21-.01-.32-.01-1.42,0-2.88,.94-3.52,2.49-.18,.45-.31,.94-.34,1.48-.04,.84,.16,1.59,.57,2.2,.14,.21,.31,.4,.5,.57,.05,.04,.11,.08,.16,.12,.1,.08,.21,.14,.32,.21,.06,.04,.13,.07,.19,.1,.12,.06,.26,.11,.4,.16,.06,.02,.12,.05,.19,.06,.21,.06,.43,.1,.66,.12h0c.12,.01,.23,.02,.36,.02,1.54,.03,2.84-.61,4.3-2,.88-.84,1.82-1.95,2.9-3.35l3.55-4.55,1.14,4.71,.08,.35c.46,1.8,1.17,2.96,2.13,3.68,.09,.07,.18,.15,.28,.22,.12,.08,.26,.13,.39,.2"/>
    <path class="cls-1" d="M240.23,36.97c-.2,.03-.39,.05-.58,.05-.09,0-.17,0-.26-.01-.44-.04-.84-.21-1.17-.53-.02-.02-.04-.05-.06-.07-.09-.09-.17-.19-.24-.31-.01-.02-.03-.04-.04-.06-.08-.14-.15-.29-.21-.46-.01-.04-.03-.08-.04-.12-.05-.16-.1-.34-.14-.54,0-.02-.01-.04-.02-.06-.04-.21-.06-.45-.08-.71,0-.06,0-.12,0-.19,0-.27-.01-.55,0-.86,.42-8.05,6.71-18.07,10.03-18.07,.05,0,.1,0,.15,0,.17,.02,.32,.07,.45,.14,.04,.02,.08,.05,.12,.08,.62,.42,.89,1.43,.8,2.76-.05,.76-.2,1.61-.49,2.53l-4.36,13.46-.28,.92c-1.32,1.22-2.49,1.86-3.58,2.03m5.17,4.35c.09,.05,.17,.09,.26,.13,.17,.07,.35,.13,.53,.19,.09,.03,.17,.06,.25,.08,.28,.07,.56,.12,.86,.15,.26,.03,.52,.04,.79,.04h0c.36,0,.72-.03,1.08-.08,.09,0,.18-.02,.27-.03,.35-.05,.7-.12,1.06-.22,.06-.02,.13-.04,.19-.06,.3-.09,.59-.19,.89-.31,.11-.04,.22-.08,.32-.13,.33-.14,.67-.31,1-.49,.11-.06,.22-.13,.33-.19,.26-.15,.52-.32,.78-.49,.12-.08,.23-.15,.35-.24,.02-.01,.04-.03,.07-.05,.28-.2,.56-.42,.84-.65,.02-.02,.04-.03,.06-.05,.35-.29,.71-.62,1.06-.95,.09-.08,.18-.16,.26-.24,.44-.43,.88-.89,1.31-1.38,0,0,0-.01,.02-.02l-.6-.57c-.6,.71-1.19,1.25-1.74,1.65-.83,.61-1.58,.89-2.17,.89-.07,0-.13,0-.19-.01-.27-.03-.47-.12-.62-.27-.02-.02-.04-.05-.06-.07-.04-.06-.08-.12-.11-.19-.02-.03-.03-.07-.04-.11-.03-.09-.04-.18-.05-.29,0-.03-.01-.06-.01-.09-.01-.14,0-.3,0-.47,0-.04,.01-.09,.02-.13,.02-.14,.04-.29,.07-.45,.01-.07,.03-.14,.04-.21,.03-.15,.07-.32,.12-.49,.02-.07,.04-.15,.06-.22,.07-.25,.14-.51,.23-.79l6.65-20.19-.51-.12-4.59,2.98-.38,.24c-.17-.33-.36-.64-.57-.92-.06-.08-.12-.16-.18-.23-.18-.22-.36-.43-.56-.62-1.05-1.01-2.39-1.61-3.87-1.75-.25-.03-.5-.04-.75-.04-7.72,0-19.09,10.77-19.63,21.36-.08,1.48,.12,2.73,.53,3.76,.02,.05,.03,.1,.05,.14,.31,.73,.73,1.34,1.25,1.82,0,0,0,0,.02,.01,.22,.2,.47,.37,.72,.53,.08,.05,.16,.09,.24,.13,.2,.11,.41,.2,.63,.27,.09,.03,.17,.06,.26,.09,.3,.09,.61,.15,.94,.18t0,0c.2,.02,.4,.03,.6,.03,.28,0,.58-.03,.88-.07,.09-.01,.19-.03,.28-.05,.22-.04,.44-.09,.67-.15,.11-.03,.22-.06,.32-.09,.25-.08,.51-.17,.77-.28,.08-.03,.16-.06,.24-.09,.34-.15,.69-.32,1.05-.52,.1-.06,.21-.12,.31-.18,.27-.15,.54-.32,.82-.5,.14-.09,.27-.18,.41-.28,.27-.19,.55-.39,.83-.61,.13-.1,.26-.19,.39-.3,.04-.03,.09-.07,.13-.11,0,0,.01-.01,.02-.01,.23-.19,.48-.4,.72-.61,.16-.14,.32-.27,.48-.41,.46-.41,.92-.85,1.4-1.33-.28,1.98,.17,3.33,1.08,4.19,.05,.05,.1,.11,.16,.16,.07,.06,.15,.12,.23,.17,.14,.09,.28,.18,.43,.26"/>
    <path class="cls-2" d="M390.95,16.31c.06,.08,.12,.15,.18,.23,.21,.29,.4,.59,.57,.92h0l.38-.24-1.8-1.65s.07,.08,.11,.12c.2,.19,.38,.4,.56,.62"/>
    <path class="cls-2" d="M281.77,2.22s-.07-.04-.1-.06c-.13-.07-.27-.14-.42-.2-.02,0-.03-.02-.05-.02-.16-.06-.33-.11-.5-.14-.04-.01-.08-.02-.12-.03-.17-.03-.35-.07-.52-.08h0l2.81,2.58c.07,0,.13,.02,.2,.03-.11-.81-.43-1.38-.88-1.78-.12-.11-.26-.21-.4-.3"/>
  </g>
  <polygon class="cls-2" points="268.58 41.4 268.5 41.4 271.31 43.97 289.89 43.95 290.09 43.38 287.29 40.8 287.28 40.8 287.08 41.38 268.58 41.4"/>
  <g>
    <path class="cls-2" d="M287.83,24.7l-2.92,10.07c-.09,.33-.17,.64-.24,.93-.02,.09-.03,.18-.05,.26-.04,.2-.08,.4-.1,.58-.01,.09-.02,.18-.03,.26-.02,.18-.03,.36-.04,.53,0,.06,0,.13-.01,.19,0,.22,0,.43,.03,.63,0,.03,.01,.06,.02,.09,.02,.16,.05,.31,.08,.46,.02,.06,.03,.11,.05,.16,.03,.11,.07,.22,.12,.32,.02,.05,.04,.1,.06,.14,.05,.1,.11,.2,.17,.29,.02,.03,.04,.06,.06,.09,.09,.11,.18,.22,.28,.31,.52,.48,1.22,.71,1.98,.8-.11-.86,0-1.99,.43-3.46l2.92-10.07h.97l-.8-2.58h-2.97Z"/>
    <path class="cls-2" d="M299.29,4.89c.27,0,.53,.01,.78,.04,.48,.05,.92,.16,1.34,.3-.44-.94-1.05-1.67-1.86-2.15-.07-.04-.15-.08-.23-.12-.22-.12-.46-.22-.71-.3-.09-.03-.19-.07-.28-.09-.34-.09-.69-.17-1.06-.21-.25-.02-.51-.04-.78-.04h-1.08s-1.09,0-1.09,0l-3.06,10.53-3.06,10.53h2.17c.49,0,.95-.03,1.41-.08l5.35-18.4h2.17Z"/>
  </g>
  <polygon class="cls-2" points="309.34 41.32 309.34 41.32 309.33 41.36 309.27 41.36 296 41.37 298.81 43.95 312.14 43.93 312.34 43.36 309.53 40.78 309.34 41.32"/>
  <g>
    <path class="cls-2" d="M309.9,4.78c.1,.11,.2,.22,.29,.33,.11,.13,.22,.27,.32,.41,.08,.12,.17,.23,.25,.35,.09,.14,.18,.29,.27,.44,.07,.12,.14,.24,.2,.36,.08,.15,.15,.31,.22,.47,.05,.12,.11,.25,.16,.37,.06,.16,.11,.34,.17,.51,.04,.13,.08,.25,.11,.38,.05,.18,.08,.37,.11,.56,.02,.12,.05,.24,.07,.37,.03,.21,.05,.42,.06,.64,0,.11,.02,.21,.03,.32,.01,.33,.01,.65,0,.99-.03,.68-.14,1.35-.3,2-.25,.98-.63,1.91-1.13,2.8-1.86,3.26-5.41,5.85-10,7.28l2.3,7.09,1.15,3.55s0,.01,0,.02c.1,.32,.21,.62,.32,.9,.04,.1,.07,.19,.11,.28,.07,.19,.15,.38,.22,.56,.04,.1,.08,.2,.13,.29,.07,.16,.14,.32,.22,.47,.04,.09,.09,.18,.13,.26,.08,.15,.16,.3,.23,.44,.04,.07,.08,.14,.11,.21,.11,.2,.23,.39,.34,.56,0,0,0,.01,.01,.01,.12,.18,.24,.35,.36,.5,.04,.05,.08,.1,.12,.15,.08,.11,.17,.21,.25,.3,.05,.05,.09,.1,.14,.15,.08,.09,.16,.17,.25,.24,.51,.49,1.05,.84,1.61,1.1-.61-.96-1.19-2.21-1.74-3.88l-3.45-10.64c6.68-2.08,11.15-6.63,11.43-12.09,.14-2.75-.78-5.21-2.76-7.02l-2.81-2.58c.05,.05,.1,.11,.15,.15,.13,.12,.25,.25,.37,.38"/>
    <path class="cls-2" d="M320.94,37.36c0,.09,0,.18,0,.26,0,.22,.02,.44,.03,.64,0,.08,.01,.16,.02,.23,.03,.26,.06,.51,.11,.74,0,.02,0,.03,.01,.05,.05,.21,.1,.4,.16,.57,.02,.06,.04,.11,.06,.17,.06,.14,.12,.26,.19,.38,.03,.04,.05,.09,.08,.13,.31,.47,.74,.74,1.28,.8,.07,0,.14,0,.21,0,.24,0,.48-.05,.72-.13-.08-.65-.1-1.39-.06-2.24,.37-7.1,4.29-20.18,8.53-21.32-.17-1-.48-1.75-.96-2.19-.1-.09-.21-.15-.32-.21-.05-.03-.1-.08-.16-.11-.17-.08-.36-.12-.56-.14,0,0,0,0,0,0-.07,0-.14,0-.22,0-.56,0-1.11,.22-1.66,.62-.14,.1-.27,.21-.41,.33-.54,.48-1.07,1.14-1.57,1.92-.21,.32-.41,.67-.61,1.03-.41,.74-.81,1.55-1.18,2.42-.11,.26-.22,.52-.33,.79-.18,.44-.35,.89-.51,1.35-.96,2.63-1.73,5.54-2.23,8.22-.05,.29-.1,.57-.15,.85-.23,1.4-.39,2.72-.45,3.88-.02,.34-.02,.66-.02,.96"/>
    <path class="cls-2" d="M338.3,17.48c.05,.05,.1,.1,.14,.15,.23,.27,.45,.55,.65,.84,.06,.08,.11,.17,.16,.26,.14,.21,.27,.43,.4,.66,.06,.12,.12,.24,.18,.36,.1,.2,.2,.41,.28,.62,.06,.13,.11,.27,.15,.4,.08,.21,.15,.42,.21,.64,.04,.14,.08,.28,.12,.43,.06,.22,.1,.45,.14,.68,.03,.14,.05,.28,.08,.43,.04,.25,.06,.51,.08,.77,0,.12,.03,.25,.03,.38,.02,.39,.02,.79,0,1.19-.03,.56-.09,1.12-.18,1.67-.03,.18-.08,.37-.12,.55-.07,.36-.14,.73-.23,1.08-.06,.22-.14,.43-.21,.65-.1,.31-.19,.63-.31,.94-.09,.23-.19,.45-.29,.68-.12,.29-.24,.57-.37,.86-.11,.23-.25,.46-.37,.69-.14,.26-.28,.53-.43,.78-.14,.23-.29,.45-.44,.68-.16,.24-.31,.49-.48,.72-.16,.22-.34,.44-.51,.66-.17,.22-.34,.44-.52,.65-.19,.22-.39,.42-.58,.63-.19,.2-.37,.4-.56,.59-.21,.2-.43,.4-.65,.59-.2,.18-.39,.35-.59,.52-.23,.19-.46,.37-.7,.55-.2,.15-.41,.31-.62,.46-.25,.17-.5,.33-.75,.49-.21,.13-.42,.27-.64,.39-.26,.15-.52,.29-.79,.42-.22,.11-.43,.23-.65,.33-.27,.13-.55,.24-.83,.35-.22,.09-.44,.18-.67,.26-.28,.1-.57,.19-.85,.27-.23,.07-.45,.13-.68,.19-.29,.07-.57,.13-.86,.18-.23,.04-.46,.09-.69,.12-.29,.04-.58,.07-.87,.09-.14,.01-.28,.04-.42,.04,0,0,0-.01,0-.02-.18,0-.36,.03-.54,.03h0s-.08,0-.12,0h0c-.44,0-.86-.02-1.28-.06-.34-.03-.68-.08-1.01-.14-.11-.02-.21-.05-.31-.07-.22-.05-.44-.1-.65-.16-.12-.03-.23-.07-.35-.1-.2-.06-.39-.13-.58-.2-.11-.04-.22-.08-.33-.13-.2-.08-.39-.17-.58-.26-.09-.05-.19-.09-.28-.13-.25-.13-.49-.27-.73-.42-.02-.01-.04-.03-.06-.04-.26-.17-.5-.34-.74-.53-.07-.06-.14-.12-.21-.18-.12-.1-.24-.19-.35-.3l2.81,2.58c1.6,1.47,3.71,2.42,6.18,2.66,.42,.04,.84,.06,1.28,.06,8.52,0,17.06-8.01,17.53-17.1,.18-3.42-1.05-6.43-3.29-8.48l-2.81-2.57s.04,.04,.06,.06c.21,.2,.41,.4,.6,.62"/>
    <path class="cls-2" d="M365.93,17.2c.06,.11,.13,.21,.18,.32,.08,.18,.13,.37,.18,.56,.03,.09,.07,.18,.09,.28,.05,.28,.08,.57,.06,.86-.05,1.04-.5,1.88-1.16,2.47-.16,.15-.34,.28-.53,.39-.38,.23-.8,.39-1.24,.47-.22,.04-.45,.06-.68,.06-.13,0-.26,0-.38-.02-.19-.02-.38-.05-.56-.1-.05-.01-.1-.04-.15-.05-.12-.04-.24-.08-.35-.13-.06-.03-.12-.07-.18-.1-.09-.05-.19-.1-.28-.15-.06-.04-.11-.09-.17-.13-.08-.06-.16-.12-.23-.18l2.81,2.58c.5,.46,1.14,.77,1.92,.85,.12,.01,.25,.02,.38,.02,1.83,0,3.5-1.33,3.61-3.4,.06-1.12-.41-2.24-1.41-3.16l-2.81-2.57c.12,.11,.2,.23,.31,.34,.09,.11,.2,.2,.28,.31,.12,.15,.21,.32,.3,.48"/>
    <path class="cls-2" d="M347.51,34.75c.05,.06,.11,.12,.16,.19,.07,.09,.13,.2,.19,.3,.04,.07,.09,.13,.12,.2,.06,.12,.11,.25,.17,.38,.03,.07,.06,.12,.08,.19,.07,.2,.12,.42,.17,.64,.05,.24,.1,.48,.14,.72,.03,.18,.06,.35,.09,.53,.02,.11,.04,.21,.06,.31,.04,.23,.08,.46,.14,.68,0,.02,.01,.05,.02,.07,.05,.19,.1,.36,.16,.54,.02,.06,.04,.11,.07,.17,.06,.14,.12,.28,.2,.4,.03,.05,.05,.09,.08,.14,.34,.52,.86,.88,1.7,.96,.12,.01,.25,.02,.39,.02,.05,0,.1-.01,.15-.01-.13-.63-.22-1.3-.36-1.95-.18-.92-.58-1.67-1.15-2.19l-2.81-2.58s.02,.03,.04,.04c.08,.07,.15,.16,.22,.24"/>
    <path class="cls-2" d="M365.48,36.18c.18-3.52-2.28-6.09-4.78-8.38l-2.22-2.04c-1.66-1.59-2.93-3.14-2.84-4.93,.09-1.77,1.49-3.06,3.28-3.15-.19-.82-.45-1.58-.99-2.06-.15-.13-.32-.25-.52-.33-.01,0-.03-.01-.04-.01-.21-.09-.44-.15-.71-.18-.11-.01-.22-.01-.34-.01-.47,0-.92,.08-1.33,.24-.41,.15-.77,.38-1.09,.66-.62,.56-1.02,1.35-1.07,2.27h0c-.01,.23,0,.45,.04,.67,0,.05,.01,.09,.02,.14,.04,.21,.09,.42,.17,.63,.01,.04,.03,.08,.04,.11,.08,.2,.16,.39,.26,.58,.01,.02,.02,.05,.04,.07,.11,.21,.24,.41,.38,.61,.03,.04,.06,.09,.09,.13,.14,.2,.3,.4,.47,.6,.02,.02,.05,.05,.07,.08,.16,.18,.33,.37,.51,.56,.03,.03,.06,.07,.1,.1,.19,.2,.39,.39,.6,.59,.05,.04,.09,.08,.13,.12,.21,.2,.42,.4,.64,.6,.72,.66,1.49,1.34,2.22,2.04l.03,.03s.02,.02,.02,.02c.25,.24,.49,.48,.72,.72,.04,.04,.08,.08,.12,.12,.23,.24,.46,.49,.68,.74,.03,.04,.07,.08,.1,.11,.22,.26,.44,.52,.64,.8,.02,.02,.03,.04,.05,.06,.2,.27,.38,.54,.55,.83,.01,.02,.03,.05,.04,.07,.17,.28,.31,.57,.45,.86,.02,.05,.05,.1,.07,.15,.12,.29,.23,.58,.32,.89,.02,.06,.03,.11,.05,.17,.08,.31,.15,.63,.19,.95,0,.05,0,.09,.01,.14,.03,.35,.05,.7,.03,1.06-.02,.3-.05,.58-.1,.87-.02,.09-.05,.19-.07,.28-.04,.19-.08,.37-.14,.55-.03,.11-.08,.22-.12,.33-.06,.16-.12,.32-.19,.48-.05,.12-.11,.23-.17,.34-.07,.15-.15,.29-.23,.43-.07,.11-.14,.22-.22,.34-.09,.13-.18,.27-.28,.4-.08,.11-.17,.22-.26,.33-.1,.12-.21,.24-.32,.36-.1,.11-.2,.21-.31,.32-.11,.11-.23,.22-.35,.33-.12,.1-.23,.2-.35,.3-.12,.1-.25,.2-.38,.29-.13,.1-.26,.2-.4,.29-.13,.09-.27,.17-.4,.25-.15,.09-.29,.18-.45,.27-.13,.08-.28,.14-.42,.22-.17,.09-.33,.17-.5,.25-.12,.06-.25,.1-.37,.16-.49,.21-.99,.4-1.53,.55-.02,0-.03,.01-.05,.02-.22,.06-.45,.12-.68,.18-.13,.03-.26,.07-.4,.1-.22,.05-.45,.09-.67,.13-.15,.03-.31,.06-.46,.08-.22,.03-.45,.06-.68,.08-.12,.02-.23,.03-.35,.05h0c-.15,0-.29,.02-.44,.03-.37,.03-.75,.04-1.14,.04-.03,0-.05,0-.08,0-.35,0-.68,0-1.01-.02-.32-.01-.64-.04-.94-.07h0c-.31-.03-.61-.07-.9-.11-.1-.01-.19-.04-.28-.05-.19-.03-.38-.07-.56-.11-.11-.02-.21-.05-.31-.08-.16-.04-.32-.08-.47-.12-.1-.03-.2-.06-.3-.1-.14-.04-.28-.09-.41-.14-.1-.04-.19-.08-.29-.12-.12-.05-.25-.1-.36-.16-.09-.04-.18-.09-.26-.13-.11-.06-.22-.11-.32-.17-.08-.05-.16-.09-.24-.14-.1-.06-.19-.12-.28-.19-.07-.05-.14-.1-.21-.16-.09-.07-.17-.14-.25-.2-.04-.03-.08-.07-.12-.1l2.81,2.58c1.13,1.04,2.98,1.81,5.58,2.06,.61,.06,1.26,.09,1.95,.09,6.92,0,12.26-3.75,12.51-8.64"/>
    <path class="cls-2" d="M386.54,18.1c.08-1.33-.18-2.34-.8-2.76-.04-.03-.08-.06-.12-.08-.14-.07-.29-.13-.45-.14-.05,0-.09,0-.14,0-.42,0-.88,.16-1.37,.45-1.23,.73-2.63,2.28-3.95,4.31-.26,.4-.52,.83-.78,1.27-1.02,1.75-1.95,3.76-2.65,5.83-.35,1.04-.65,2.09-.86,3.13-.22,1.04-.36,2.08-.42,3.09-.02,.31-.02,.59,0,.86,0,.06,0,.12,0,.18,.02,.26,.04,.5,.08,.71,0,.02,0,.04,.01,.06,.04,.2,.08,.37,.14,.54,.01,.04,.03,.08,.04,.12,.06,.17,.13,.32,.21,.45,.01,.02,.03,.04,.04,.06,.07,.11,.15,.22,.24,.31,.02,.02,.04,.05,.06,.07,.33,.32,.73,.48,1.17,.53,.08,0,.17,.01,.26,.01,.19,0,.38-.02,.58-.05-.04-.38-.05-.79-.03-1.28,.37-7.1,5.3-15.71,8.74-17.66"/>
    <path class="cls-2" d="M381.1,36.63c-.48,.48-.95,.92-1.4,1.33-.17,.15-.32,.28-.48,.41-.24,.21-.48,.43-.72,.62,0,0,0,0,0,0,0,0-.01,0-.02,.01h0s-.09,.07-.13,.11c-.13,.11-.26,.2-.39,.3-.28,.22-.56,.42-.83,.61-.14,.1-.28,.19-.41,.28-.28,.18-.55,.35-.82,.5-.1,.06-.21,.13-.31,.18-.36,.2-.71,.37-1.05,.51-.08,.04-.16,.06-.24,.09-.26,.11-.52,.2-.77,.28-.11,.03-.22,.06-.32,.09-.23,.06-.45,.11-.67,.15-.09,.02-.19,.04-.28,.05-.3,.04-.6,.07-.88,.07-.2,0-.4-.01-.6-.03-.33-.03-.64-.1-.94-.19-.09-.03-.18-.06-.26-.09-.22-.07-.43-.16-.63-.27-.08-.04-.16-.08-.24-.13-.25-.15-.5-.32-.72-.52,0,0-.01-.01-.02-.02h0l2.81,2.57c.76,.7,1.72,1.11,2.82,1.21,.2,.02,.4,.03,.6,.03,2.14,0,4.77-1.15,7.99-3.98-.91-.86-1.36-2.21-1.08-4.19"/>
    <path class="cls-2" d="M390.24,35.57c-.05,.17-.08,.34-.12,.5-.02,.07-.03,.14-.04,.21-.03,.16-.05,.31-.07,.45,0,.04-.01,.09-.02,.13-.02,.17-.02,.33-.01,.47,0,.03,.01,.06,.01,.09,.01,.11,.03,.2,.06,.29,.01,.04,.03,.07,.04,.1,.03,.07,.07,.14,.11,.2,.02,.02,.04,.05,.06,.07,.15,.15,.35,.24,.62,.27,.06,0,.12,0,.19,0,.58,0,1.33-.28,2.17-.89,.03-.11,.06-.21,.09-.33l6.65-20.2-2.81-2.57-6.65,20.2c-.09,.28-.16,.55-.23,.8-.02,.07-.04,.15-.06,.22"/>
    <path class="cls-2" d="M394.25,37.79c-.09,.09-.17,.16-.26,.24-.35,.34-.71,.66-1.07,.95-.02,.02-.04,.04-.06,.06,0,0,0,0,0,0-.28,.23-.56,.45-.84,.65h0s-.05,.03-.07,.05c-.12,.08-.23,.16-.35,.24-.26,.17-.52,.34-.77,.49-.11,.07-.22,.14-.33,.2-.33,.18-.67,.34-1,.49-.11,.05-.22,.09-.32,.13-.3,.12-.59,.22-.89,.31-.07,.02-.13,.05-.2,.06-.35,.09-.7,.16-1.05,.22-.09,.01-.18,.02-.27,.04-.36,.04-.72,.07-1.08,.08-.27,0-.53-.01-.79-.04-.3-.03-.59-.08-.86-.15-.09-.02-.17-.05-.25-.08-.18-.05-.36-.11-.53-.18-.09-.04-.18-.08-.26-.13-.15-.08-.29-.16-.43-.26-.08-.06-.16-.11-.23-.17-.05-.04-.1-.06-.14-.1l2.81,2.57c.68,.62,1.61,.96,2.7,1.07,.25,.03,.52,.04,.79,.04,3.26,0,6.55-1.79,9.89-5.59l-2.81-2.57c-.45,.51-.89,.97-1.33,1.4"/>
    <path class="cls-1" d="M291.77,23.29c-.46,.05-.92,.08-1.41,.08h-2.17s3.06-10.53,3.06-10.53l3.06-10.53h2.17c.27,0,.53,.01,.78,.03,.38,.04,.73,.11,1.06,.21,.1,.03,.19,.06,.28,.09,.25,.08,.49,.18,.71,.3,.08,.04,.16,.08,.23,.12,.81,.48,1.43,1.21,1.86,2.15,.57,1.22,.83,2.81,.73,4.8-.31,6.04-3.51,12.49-10.37,13.28m17.57,18.03l.19-.54c-.28-.09-.55-.2-.82-.32-.56-.26-1.1-.61-1.61-1.1-.08-.08-.16-.16-.25-.25-.05-.05-.09-.1-.14-.15-.08-.09-.17-.2-.25-.3-.04-.05-.08-.09-.12-.15-.12-.16-.24-.32-.36-.51,0,0,0,0,0-.01-.12-.17-.23-.36-.34-.56-.04-.07-.08-.14-.11-.21-.08-.14-.15-.29-.23-.44-.04-.09-.09-.17-.13-.26-.07-.15-.14-.31-.22-.47-.04-.1-.08-.19-.13-.29-.08-.18-.15-.37-.22-.56-.03-.09-.07-.18-.11-.28-.11-.29-.21-.59-.32-.9,0,0,0-.01,0-.02l-1.15-3.55-2.3-7.09c4.59-1.43,8.14-4.02,10-7.28,.51-.89,.89-1.83,1.13-2.8,.16-.65,.26-1.32,.3-2,.02-.33,.02-.66,0-.99,0-.11-.02-.21-.03-.32-.02-.22-.03-.43-.06-.64-.02-.12-.05-.25-.07-.37-.03-.19-.07-.37-.11-.55-.03-.13-.08-.25-.11-.38-.05-.17-.1-.34-.17-.51-.05-.13-.1-.25-.16-.37-.07-.16-.14-.32-.22-.47-.06-.12-.13-.24-.2-.36-.09-.15-.17-.3-.26-.44-.08-.12-.16-.23-.25-.35-.1-.14-.2-.27-.31-.41-.09-.11-.19-.22-.29-.33-.12-.13-.24-.25-.37-.38-1.75-1.69-4.38-2.85-7.89-3.19-.73-.07-1.49-.11-2.3-.11l-19.1,.02-.2,.57h0c.18,.02,.35,.05,.52,.08,.04,0,.08,.02,.12,.03,.17,.04,.34,.08,.5,.14,.02,0,.03,.01,.05,.02,.15,.06,.29,.12,.42,.2,.03,.02,.07,.04,.1,.06,.14,.09,.28,.18,.4,.29,.45,.4,.77,.97,.88,1.78,.12,.84,.02,1.94-.4,3.37l-7.87,27.1c-1.32,4.55-3.79,5.81-6.09,6.04l-.2,.58h.08l18.51-.02,.2-.57c-.76-.09-1.46-.31-1.98-.8-.1-.09-.19-.2-.28-.31-.02-.03-.04-.06-.06-.09-.06-.09-.12-.19-.17-.29-.02-.05-.05-.09-.07-.14-.04-.1-.08-.21-.12-.32-.02-.05-.03-.1-.05-.16-.04-.14-.06-.3-.09-.46,0-.03-.01-.05-.01-.08-.02-.2-.03-.41-.03-.63,0-.06,0-.13,0-.19,0-.17,.02-.34,.04-.53,.01-.09,.02-.17,.03-.26,.03-.18,.06-.38,.1-.58,.02-.09,.03-.17,.05-.27,.06-.3,.14-.6,.24-.93l2.92-10.07h2.97s.8,2.57,.8,2.57l4.39,14.1h13.27s.05-.01,.05-.01v-.03Z"/>
    <path class="cls-1" d="M321.56,31.67c.5-2.68,1.28-5.59,2.23-8.22,.17-.46,.34-.91,.51-1.35,.11-.27,.22-.53,.33-.79,.38-.87,.77-1.69,1.18-2.42,.2-.36,.41-.71,.61-1.03,.51-.78,1.03-1.43,1.57-1.92,.13-.12,.27-.23,.41-.33,.54-.4,1.1-.62,1.66-.62,.07,0,.15,0,.22,0,0,0,0,0,0,0,.2,.02,.39,.07,.56,.14,.06,.03,.11,.07,.16,.11,.11,.06,.22,.12,.32,.21,.48,.44,.8,1.19,.96,2.19,.13,.78,.18,1.71,.12,2.8-.4,7.75-4.61,19.44-8.6,20.76-.24,.08-.48,.13-.72,.13-.07,0-.14,0-.21,0-.55-.05-.97-.33-1.28-.79-.03-.04-.05-.09-.08-.13-.07-.12-.13-.24-.19-.38-.02-.06-.05-.11-.06-.17-.06-.18-.12-.36-.16-.57,0-.02-.01-.03-.01-.05-.05-.23-.08-.48-.11-.74,0-.08-.01-.15-.02-.23-.02-.2-.03-.42-.03-.64,0-.09,0-.17,0-.26,0-.31,0-.63,.02-.96,.06-1.16,.22-2.48,.45-3.88,.05-.28,.1-.56,.15-.85m-5.28,8.28c.07,.06,.14,.12,.21,.18,.24,.19,.48,.37,.74,.53,.02,.01,.05,.03,.07,.04,.23,.15,.48,.29,.73,.42,.09,.05,.18,.09,.28,.13,.19,.09,.38,.18,.58,.26,.11,.05,.22,.09,.33,.13,.19,.07,.39,.14,.58,.2,.11,.03,.23,.07,.35,.1,.21,.06,.43,.11,.65,.16,.11,.02,.21,.05,.31,.07,.33,.06,.66,.11,1.01,.15,.42,.04,.84,.06,1.28,.06h0s.08,0,.12,0c.18,0,.36-.02,.54-.03,.14,0,.28-.01,.42-.02,.29-.02,.58-.05,.87-.09,.23-.03,.46-.07,.69-.12,.29-.05,.58-.11,.86-.18,.23-.06,.45-.12,.68-.19,.29-.08,.57-.17,.85-.27,.22-.08,.45-.17,.67-.26,.28-.11,.55-.22,.83-.35,.22-.1,.44-.22,.65-.33,.26-.14,.53-.27,.79-.42,.22-.12,.43-.26,.64-.4,.25-.16,.5-.32,.75-.49,.21-.15,.41-.31,.62-.46,.24-.18,.47-.35,.7-.55,.2-.17,.39-.35,.59-.52,.22-.2,.44-.39,.65-.59,.19-.19,.38-.39,.56-.59,.2-.21,.4-.41,.58-.63,.18-.21,.35-.43,.52-.65,.17-.22,.35-.43,.51-.66,.17-.23,.32-.48,.48-.72,.15-.23,.3-.45,.44-.68,.15-.26,.29-.52,.43-.78,.12-.23,.26-.45,.37-.69,.14-.28,.25-.57,.37-.85,.1-.23,.2-.45,.29-.68,.12-.31,.21-.63,.31-.94,.07-.22,.15-.43,.21-.65,.1-.36,.16-.72,.24-1.08,.03-.18,.09-.36,.12-.55,.09-.55,.15-1.11,.18-1.67,.02-.4,.02-.8,0-1.19,0-.13-.02-.25-.03-.38-.02-.26-.04-.52-.08-.77-.02-.14-.05-.28-.08-.43-.04-.23-.09-.46-.14-.68-.04-.14-.08-.29-.12-.43-.06-.21-.13-.43-.21-.64-.05-.14-.1-.27-.15-.4-.09-.21-.18-.42-.29-.62-.06-.12-.11-.24-.18-.36-.12-.23-.26-.44-.4-.66-.05-.09-.1-.17-.16-.26-.2-.29-.42-.57-.65-.84-.05-.05-.1-.1-.14-.15-.19-.21-.39-.42-.6-.62-1.66-1.55-3.9-2.58-6.54-2.84-.45-.04-.9-.07-1.37-.07-8.18,0-16.66,8.01-17.13,17.16-.19,3.65,1.18,6.8,3.62,8.83"/>
    <path class="cls-1" d="M343.22,40.54c.09,.07,.18,.13,.28,.19,.08,.05,.16,.1,.24,.14,.1,.06,.21,.12,.32,.17,.09,.04,.17,.09,.26,.13,.12,.06,.24,.11,.36,.16,.09,.04,.19,.08,.29,.11,.13,.05,.27,.09,.41,.14,.1,.03,.2,.07,.3,.1,.15,.05,.31,.08,.47,.12,.1,.03,.2,.05,.31,.08,.18,.04,.37,.07,.56,.11,.09,.02,.18,.04,.28,.05,.29,.05,.59,.08,.91,.12h0c.3,.03,.62,.05,.94,.07,.32,.02,.66,.02,1.01,.02,.03,0,.05,0,.08,0,.38,0,.77-.01,1.14-.04,.15,0,.29-.03,.44-.04,.12-.01,.24-.02,.35-.04,.23-.02,.45-.05,.68-.08,.16-.02,.31-.05,.46-.08,.23-.04,.45-.08,.67-.13,.14-.03,.27-.07,.4-.1,.23-.06,.46-.11,.68-.18,.02,0,.03-.01,.05-.02,.53-.16,1.04-.35,1.52-.56,.12-.05,.25-.1,.37-.16,.17-.08,.34-.17,.5-.25,.14-.07,.28-.14,.42-.22,.15-.09,.3-.18,.45-.27,.14-.08,.28-.16,.41-.25,.14-.09,.27-.19,.4-.29,.13-.1,.26-.19,.38-.29,.12-.1,.24-.2,.35-.3,.12-.11,.24-.22,.35-.33,.11-.1,.21-.21,.31-.32,.11-.12,.22-.24,.32-.36,.09-.11,.18-.22,.26-.33,.1-.13,.19-.26,.28-.4,.08-.11,.15-.22,.22-.33,.08-.14,.16-.29,.23-.43,.06-.11,.12-.23,.17-.34,.07-.16,.13-.32,.19-.48,.04-.11,.08-.22,.12-.33,.06-.18,.1-.37,.14-.56,.02-.09,.05-.19,.07-.28,.05-.29,.09-.57,.1-.87,.02-.36,0-.72-.03-1.06,0-.05,0-.09-.01-.14-.04-.32-.11-.64-.19-.95-.02-.06-.03-.11-.05-.17-.09-.3-.19-.6-.32-.89-.02-.05-.04-.1-.06-.15-.14-.29-.28-.58-.45-.86-.01-.02-.03-.05-.04-.07-.17-.28-.35-.56-.55-.83-.02-.02-.03-.05-.05-.07-.2-.27-.42-.54-.64-.79-.03-.04-.07-.08-.1-.12-.22-.25-.45-.5-.68-.74-.04-.04-.08-.08-.12-.12-.24-.24-.48-.48-.72-.72-.02-.02-.04-.03-.05-.05-.74-.7-1.5-1.38-2.23-2.04-.22-.2-.43-.4-.64-.6-.04-.04-.09-.08-.13-.12-.21-.2-.4-.4-.6-.59-.03-.03-.06-.07-.1-.1-.18-.18-.35-.37-.51-.56-.02-.03-.04-.05-.06-.08-.17-.2-.32-.4-.47-.6-.03-.04-.06-.09-.09-.13-.14-.2-.27-.41-.38-.61-.01-.02-.02-.05-.04-.07-.1-.19-.19-.39-.26-.58-.02-.04-.03-.08-.05-.11-.07-.21-.13-.42-.16-.63,0-.05-.02-.09-.02-.14-.03-.22-.05-.44-.04-.67h0c.05-.92,.45-1.71,1.07-2.28,.31-.28,.68-.51,1.09-.66,.41-.15,.86-.24,1.33-.24,.12,0,.23,0,.34,.02,.27,.03,.51,.09,.71,.18,.01,0,.03,0,.04,.01,.2,.09,.37,.2,.51,.33,.55,.48,.81,1.23,1,2.06,.17,.76,.29,1.58,.51,2.29,.26,.79,.71,1.48,1.34,1.96,.06,.04,.11,.09,.17,.13,.09,.06,.18,.1,.28,.15,.06,.03,.12,.07,.18,.1,.11,.05,.23,.09,.35,.13,.05,.02,.1,.04,.15,.05,.18,.05,.36,.08,.56,.1,.12,.01,.25,.02,.38,.02,.23,0,.45-.02,.68-.06,.44-.08,.86-.24,1.24-.47,.19-.11,.37-.24,.53-.39,.66-.59,1.1-1.44,1.16-2.47,.02-.29,0-.58-.06-.86-.02-.09-.06-.18-.09-.28-.05-.19-.1-.38-.18-.56-.05-.11-.12-.21-.18-.32-.09-.16-.18-.32-.3-.48-.08-.11-.19-.21-.28-.31-1.08-1.19-2.95-2.12-5.7-2.39-.54-.05-1.12-.08-1.73-.08-6.69,0-11.47,4.04-11.72,8.81-.38,7.31,9.31,10.12,9.06,15.06-.1,1.96-1.75,3.32-3.69,3.38-.05,0-.1,.01-.15,.01-.14,0-.26,0-.39-.02-.84-.08-1.35-.45-1.7-.97-.03-.04-.05-.09-.08-.14-.08-.13-.14-.26-.2-.41-.02-.06-.05-.11-.07-.17-.06-.17-.11-.35-.16-.53,0-.02-.01-.05-.02-.07-.05-.22-.09-.44-.14-.68-.02-.1-.04-.21-.06-.31-.03-.18-.06-.35-.09-.53-.04-.24-.09-.49-.14-.73-.04-.23-.1-.44-.17-.64-.02-.07-.05-.12-.08-.19-.05-.13-.1-.26-.17-.38-.04-.07-.08-.14-.12-.2-.06-.1-.12-.21-.19-.3-.05-.07-.11-.13-.16-.19-.07-.08-.14-.17-.22-.24-.52-.49-1.18-.8-1.95-.88-.12-.01-.25-.02-.38-.02-1.94,0-3.56,1.38-3.66,3.4-.06,1.15,.43,2.26,1.47,3.17,.08,.07,.16,.14,.25,.2,.07,.05,.14,.11,.21,.15"/>
    <path class="cls-1" d="M377.83,37.04c-.2,.03-.39,.05-.58,.05-.09,0-.17,0-.26-.01-.44-.04-.84-.21-1.17-.53-.02-.02-.04-.05-.06-.07-.09-.09-.17-.2-.24-.31-.01-.02-.03-.04-.04-.06-.08-.13-.15-.29-.21-.45-.01-.04-.03-.08-.04-.12-.05-.17-.1-.34-.14-.54,0-.02,0-.04-.01-.06-.04-.21-.06-.45-.08-.71,0-.06,0-.12,0-.19,0-.27-.01-.55,0-.86,.05-1.01,.2-2.05,.42-3.09,.22-1.04,.51-2.1,.86-3.13,.7-2.07,1.63-4.08,2.65-5.83,.26-.44,.52-.86,.78-1.27,1.32-2.02,2.73-3.58,3.95-4.31,.49-.29,.95-.45,1.37-.45,.05,0,.1,0,.14,0,.17,.01,.32,.07,.45,.14,.04,.02,.08,.05,.12,.08,.62,.42,.89,1.43,.8,2.76-.05,.76-.2,1.62-.49,2.53l-4.36,13.46-.28,.92c-1.32,1.22-2.49,1.86-3.58,2.02m5.17,4.36c.09,.05,.17,.09,.26,.13,.17,.07,.35,.13,.53,.19,.09,.03,.17,.06,.25,.08,.28,.07,.56,.12,.86,.15,.25,.02,.52,.04,.79,.04,.36,0,.72-.03,1.08-.07,.09-.01,.18-.02,.27-.04,.35-.05,.7-.12,1.05-.22,.07-.02,.13-.04,.2-.06,.29-.09,.59-.19,.89-.31,.11-.04,.22-.08,.32-.13,.33-.14,.67-.31,1-.49,.11-.06,.22-.13,.34-.2,.26-.15,.51-.31,.77-.49,.12-.08,.23-.16,.35-.24,.02-.01,.04-.03,.06-.05,.28-.2,.56-.42,.84-.65,.02-.02,.04-.03,.06-.05,.35-.29,.71-.62,1.07-.96,.09-.08,.17-.15,.26-.24,.44-.43,.88-.9,1.33-1.4l-.6-.57c-.6,.71-1.19,1.25-1.74,1.65-.83,.61-1.58,.89-2.17,.89-.07,0-.13,0-.19,0-.27-.03-.47-.12-.62-.27-.02-.02-.04-.05-.06-.07-.05-.06-.08-.12-.11-.19-.02-.03-.03-.07-.04-.11-.03-.09-.04-.18-.06-.29,0-.03-.01-.06-.01-.09,0-.14,0-.3,.01-.47,0-.04,.01-.09,.02-.13,.02-.14,.04-.29,.07-.45,.01-.07,.03-.14,.04-.21,.03-.16,.07-.32,.12-.49,.02-.07,.03-.14,.06-.22,.07-.25,.14-.51,.23-.8l6.65-20.2-.51-.11-4.59,2.98-.38,.24h0c-.17-.33-.37-.64-.57-.92-.06-.08-.12-.16-.18-.24-.17-.22-.36-.43-.56-.62-1.05-1.01-2.39-1.61-3.87-1.75-.25-.02-.5-.04-.75-.04-7.72,0-19.09,10.78-19.64,21.36-.13,2.63,.57,4.56,1.83,5.71,0,0,.01,.01,.02,.02,.22,.2,.47,.37,.72,.52,.08,.05,.16,.09,.24,.13,.2,.1,.41,.19,.63,.27,.09,.03,.17,.06,.26,.09,.3,.09,.62,.15,.94,.19,.2,.02,.4,.03,.6,.03,.28,0,.58-.03,.88-.07,.09-.01,.19-.03,.28-.05,.22-.04,.44-.09,.67-.15,.11-.03,.21-.06,.32-.09,.25-.08,.51-.17,.77-.28,.08-.03,.16-.06,.24-.09,.34-.15,.69-.32,1.05-.51,.1-.06,.21-.12,.31-.18,.27-.15,.54-.32,.82-.5,.14-.09,.27-.18,.41-.28,.27-.19,.55-.39,.83-.61,.13-.1,.26-.19,.39-.3,.04-.03,.09-.07,.13-.11,0,0,.01,0,.02-.01,.23-.19,.48-.4,.72-.61,.16-.14,.32-.27,.48-.41,.46-.41,.92-.85,1.4-1.33-.28,1.98,.17,3.33,1.08,4.19,.05,.05,.1,.11,.16,.15,.07,.06,.15,.12,.23,.17,.14,.09,.28,.18,.43,.26"/>
  </g>
</svg>