<?xml version="1.0" encoding="UTF-8"?>
<svg id="Camada_1" data-name="Camada 1" xmlns="http://www.w3.org/2000/svg" viewBox="0 0 400 193.39">
  <g>
    <path d="M344.08,83.9c0,.7-.57,1.27-1.27,1.27h-7.9V44.56h-9.62v40.61h-7.92c-.7,0-1.25-.57-1.25-1.27V44.56h-9.61v39.34c0,5.35,4.26,9.68,9.58,9.82h28.03c5.32-.14,9.58-4.47,9.58-9.82V44.56h-9.62v39.34Z"/>
    <path d="M344.11,99.58v-.02h-22.04v.02c-5.31,.14-9.58,4.49-9.58,9.83v39.32h9.59v-39.32c0-.7,.59-1.28,1.29-1.28h19.43c.7,0,1.27,.58,1.27,1.28v10.27h-15.55c-.73,0-1.35,.44-1.62,1.07l-3.28,7.47h20.45v20.51h9.62v-39.32c0-5.34-4.26-9.69-9.58-9.83"/>
    <path d="M306.49,118.51v-9.1c0-5.34-4.28-9.69-9.57-9.83v-.02h-22.68v.02c-5.32,.14-9.59,4.5-9.59,9.83v39.32h9.61v-39.32c0-.7,.59-1.28,1.28-1.28h20.08c.69,0,1.27,.58,1.27,1.28v8.98c0,.71-.58,1.29-1.28,1.29h-15.17c-.7,0-1.35,.44-1.6,1.07l-3.24,7.47h12.17l10.06,20.51h11.12l-10.8-20.54c4.65-.74,8.36-4.77,8.36-9.68"/>
    <path d="M249.94,74.65l-18.43-28.5c-.73-.96-1.88-1.6-3.18-1.6h-2.77c-2.04,0-3.67,1.66-3.67,3.67v45.5h9.61v-30.17l18.43,28.58c.72,.95,1.87,1.59,3.17,1.59h2.78c2.01,0,3.65-1.65,3.65-3.67V44.54h-9.6v30.11Z"/>
    <path d="M274.24,93.71h0s27.15,0,27.15,0v-8.56h-25.85c-.7,0-1.28-.57-1.28-1.26v-10.69h24.77v-8.55h-24.77v-10.25c0-.7,.58-1.29,1.28-1.29h25.85v-8.56h-27.15v.02c-5.32,.14-9.59,4.48-9.59,9.84v29.49c0,5.33,4.27,9.68,9.59,9.82"/>
    <path d="M231.48,99.58c-5.32,.14-9.58,4.5-9.58,9.83v29.51c0,5.35,4.26,9.66,9.58,9.82h28.06v-8.53h-26.77c-.7,0-1.26-.59-1.26-1.28v-10.7h25.68v-8.54h-25.68v-10.27c0-.7,.56-1.28,1.26-1.28h26.77v-8.57h-28.06v.02Z"/>
    <path d="M196.01,4.84h183.58V188.43H196.01V4.84Zm-65.61,129.5c-9.09,5.15-16.71,4.85-19.25-1.67-1.58-4.07-6.35-3.5-15.02-.17-6.37,2.48-46.94,18.47-51.85,20.23-5.16,1.83-10.14-.49-10.84-5.75-.67-5.16-13.23-98.16-13.23-98.16-.78-5.6,3.44-9.48,8.89-8.11l54.94,13.74c8.86,2.23,14.99,7.33,17.17,12.18,0,0,37.13,6.65,41.93,7.5,6.76,1.23,9.88,4.26,12.32,8.12,1.65,2.63,17.48,27.61,17.48,27.61,0,0-34.34,19.79-42.54,24.46m254.01,58.92V.02H.02V193.26H384.41Z"/>
    <path d="M60.9,68.3s11.65,1.4,13.39,1.6c6.28,.78,8.58,4.01,10.52,9.27,1.93,5.24,8.41,22.87,8.41,22.87l2.28-.3c9.28-1.19,12.94-.51,15.72,1.28l-12.82-29.78c-4.02-9.36-9.16-11.29-20.1-13.47-2.46-.48-8.47-1.71-12.27-2.47-3.82-.76-6.81,1.56-6.88,4.85-.15-.7-1.89-6.6-1.89-6.6l-20.69-4.14,11.51,56.38,23.35-2.99-10.53-36.5Z"/>
    <path d="M115.48,112.88c-2.42-5.62-8.29-6.59-17.34-4.92-9.02,1.67-48.21,8.88-48.21,8.88l3.42,16.71,48.96-14.29c9.6-2.83,14.62-2.98,15.76-.34,2.45,5.7,9.35,6.13,17.1,2.65,6.31-2.81,30.87-13.73,30.87-13.73l-3.79-6.19-45.83,13.42s-.32-.76-.95-2.19"/>
  </g>
  <polygon points="126.1 102.8 159.2 96.73 155.76 91.07 121.62 93.58 126.1 102.8"/>
  <g>
    <path d="M152,84.94s-1.11-1.78-1.4-2.26c-1.03-1.69-3-3.2-6.15-3.55-2.62-.29-31.51-3.57-31.51-3.57l4.02,8.36,35.04,1.03Z"/>
    <path d="M392.95,187.24v-2.06h1.37c1.15,0,1.46,.35,1.46,.97,0,.73-.4,1.09-1.62,1.09h-1.21Zm3.86-1.02c0-1.3-.78-1.89-2.34-1.89h-2.52v6.59h1.01v-2.86h1.14l1.76,2.86h1.1l-1.88-2.89c.98-.13,1.73-.64,1.73-1.81"/>
    <path d="M394.17,192.43c-2.65,0-4.69-2.02-4.69-4.81s2.04-4.77,4.69-4.77,4.67,2.05,4.67,4.77-2.05,4.81-4.67,4.81m5.78-4.81c0-3.27-2.66-5.68-5.78-5.68s-5.8,2.41-5.8,5.68,2.66,5.73,5.8,5.73,5.78-2.41,5.78-5.73"/>
  </g>
</svg>