<?xml version="1.0" encoding="UTF-8"?>
<svg id="Camada_1" data-name="Camada 1" xmlns="http://www.w3.org/2000/svg" viewBox="0 0 400 152.12">
  <path d="M200,.17h0c-27.8,0-54.27,4.38-78.32,11.05v14.23c0,61.6,70.85,43.67,70.85,97.46v18.22c0,4.34-2.66,6.94-9.3,6.94s-9.3-2.6-9.3-6.94v-39.01h-52.26v38.78c24.05,6.67,50.52,11.05,78.32,11.05h0c15.22,0,30.04-1.31,44.28-3.6,.34-2.15,.51-4.37,.51-6.64v-19.38c0-70.28-70.85-51.48-70.85-97.17V10.7c0-4.05,2.66-6.65,9.3-6.65s9.3,2.6,9.3,6.65V46.63h52.25V10.41c0-2.28-.16-4.5-.51-6.64C230.04,1.48,215.22,.17,200,.17"/>
  <path d="M73.14,28.73c-10.97,4.9-20.95,10.02-29.77,15.01v46.21l-15.28-36.98C10.45,64.36,.32,73.72,.32,76.06c0,3.92,28.48,27.59,73.12,47.47l-.3-94.8Z"/>
  <path d="M250.45,4.82V46.63h16.81v97.13c13.01-3.11,25.39-6.94,36.99-11.19V46.63h16.81V26.19c-20.73-8.81-44.64-16.66-70.61-21.38"/>
  <path d="M116.02,12.84c-13.13,3.89-25.49,8.44-36.88,13.28V126c11.39,4.84,23.75,9.38,36.88,13.28V12.84Z"/>
  <path d="M326.74,28.67l.3,94.64c10.97-4.91,20.96-10.04,29.78-15.04V63.83l14.7,35.57c17.89-11.51,28.16-20.99,28.16-23.34,0-3.91-28.4-27.52-72.94-47.39"/>
</svg>