<?xml version="1.0" encoding="UTF-8"?>
<svg id="Camada_1" data-name="Camada 1" xmlns="http://www.w3.org/2000/svg" viewBox="0 0 371.31 400">
  <g>
    <path d="M366.92,4.59c-6.75,8.76-66.44,81.68-181.25,81.68S11.15,13.36,4.39,4.59v-.2H366.92v.2Zm0,144.94c-11.32,1.99-71.06,11.49-181.25,11.49S15.71,151.53,4.39,149.54v-21.27c14.03,4.67,73.94,22.21,181.28,22.21s167.22-17.54,181.25-22.21v21.27Zm0,26.3H4.39v-21.84c13.31,2.29,73.16,11.44,181.28,11.44s167.95-9.14,181.25-11.44v21.84Zm0,156.85H4.39V180.23H366.92v152.45Zm0,62.93H4.39v-58.53H366.92v58.53Zm-43.65-303.61c-27.56,11.03-73.8,24.18-137.6,24.18C72.45,116.17,12.76,75.01,4.4,68.79v-24.04c6.31,5.78,20.07,17.1,41.82,28.57,27.97,14.73,74.85,32.29,139.46,32.29s111.49-17.56,139.44-32.29c21.74-11.46,35.49-22.79,41.81-28.57v24.04c-3.8,2.85-18.27,13.03-43.65,23.19m43.65,9.02v22.64c-22.13,8.1-85.89,22.43-181.25,22.43S26.53,131.75,4.4,123.65v-22.64c6.08,3.17,19.97,9.72,42.22,16.34,27.88,8.29,74.64,18.17,139.05,18.17s111.17-9.88,139.04-18.17c22.25-6.62,36.13-13.16,42.21-16.33m-43.68,12.18c-27.57,8.18-73.81,17.93-137.57,17.93s-110.01-9.75-137.58-17.93c-24.99-7.41-39.52-14.88-43.69-17.18v-21.79c6.21,4.34,20.03,13.04,42.03,21.84,27.92,11.17,74.74,24.5,139.24,24.5s111.32-13.33,139.23-24.5c21.99-8.8,35.82-17.5,42.02-21.84v21.79c-4.18,2.3-18.7,9.77-43.68,17.18M4.39,11.61c6.4,7.58,20.11,22.18,41.61,36.93,28,19.22,74.95,42.12,139.67,42.12s111.67-22.9,139.66-42.12c21.49-14.74,35.19-29.34,41.59-36.93v27.08c-3.49,3.47-18.16,17.23-44.06,30.85-27.49,14.45-73.6,31.68-137.19,31.68C71.69,101.22,11.99,46.18,4.39,38.68V11.61ZM366.92,0H0V400H371.31V0h-4.39Z"/>
    <path d="M146.36,260.24h42.7c6.7,0,12.08,.83,16.16,2.47,7.66,3.08,11.49,8.87,11.49,17.36,0,5.04-1.31,9.35-3.94,12.9-4.18,5.63-11.16,8.44-20.98,8.44h-45.43v-41.17Zm0-49.05h39.51c6.98,0,12.23,.74,15.77,2.23,6.27,2.66,9.41,7.81,9.41,15.45s-2.95,12.85-8.85,15.77c-3.75,1.86-9.01,2.79-15.76,2.79h-40.08v-36.23Zm79.06,90.06c4.75-6.11,7.13-12.93,7.13-20.47,0-8.97-2.62-16.01-7.88-21.1-2.98-2.87-7.46-5.44-13.46-7.72,4.09-2.07,7.22-4.35,9.4-6.85,4.2-4.73,6.29-10.77,6.29-18.16,0-6.31-1.71-11.89-5.13-16.72-5.83-8.18-15.63-12.27-29.42-12.27h-61.53v116.97h60.7c15.49,0,26.79-4.57,33.89-13.7"/>
  </g>
  <polygon points="352.28 301.01 284.14 301.01 284.14 197.97 268.29 197.97 268.29 314.94 352.28 314.94 352.28 301.01"/>
  <polygon points="79.77 302.84 57.61 302.84 57.61 210.07 79.77 210.07 79.77 197.86 19.05 197.86 19.05 210.07 41.61 210.07 41.61 302.84 19.05 302.84 19.05 315.04 79.77 315.04 79.77 302.84"/>
  <path d="M26.55,379.9c-1.5,0-2.79-.41-3.86-1.22-1.07-.81-1.83-1.96-2.26-3.43l-2.34,1.25c.79,1.94,1.89,3.4,3.29,4.38,1.4,.97,3.09,1.47,5.06,1.47,2.71,0,4.84-.79,6.42-2.37,1.58-1.58,2.36-3.72,2.36-6.41,0-2-.43-3.62-1.29-4.87-.86-1.25-2.57-2.58-5.13-3.98-.33-.18-.81-.43-1.43-.76-3.47-1.82-5.21-3.78-5.21-5.89,0-1.47,.44-2.64,1.31-3.51,.88-.87,2.05-1.3,3.53-1.3,1.09,0,2.04,.23,2.84,.68,.8,.45,1.42,1.1,1.86,1.97l2.11-1.27c-.69-1.27-1.6-2.23-2.71-2.86-1.11-.64-2.42-.95-3.93-.95-2.29,0-4.16,.67-5.61,2.01-1.44,1.34-2.16,3.07-2.16,5.21,0,1.7,.49,3.16,1.49,4.39,1,1.22,3.01,2.63,6.03,4.22,2.36,1.26,3.91,2.36,4.62,3.33,.72,.95,1.08,2.16,1.08,3.61,0,1.98-.53,3.53-1.6,4.65-1.07,1.12-2.55,1.68-4.45,1.68"/>
  <polygon points="51.16 366.31 65.01 381.55 68.98 381.55 54.06 365.88 68.3 351.53 64.73 351.53 51.16 365.59 51.16 351.53 48.43 351.53 48.43 381.55 51.16 381.55 51.16 366.31"/>
  <path d="M88.58,355.98l5.12,13.06h-10.45l5.33-13.06Zm-6.26,15.4h12.27l3.83,10.17h2.98l-12.63-31.21-13.19,31.21h2.77l3.97-10.17Z"/>
  <polygon points="114.93 381.54 117.66 381.54 117.66 354.09 125.94 354.09 125.94 351.53 106.67 351.53 106.67 354.09 114.93 354.09 114.93 381.54"/>
  <polygon points="152.48 378.98 140.34 378.98 140.34 366.04 152.48 366.04 152.48 363.48 140.34 363.48 140.34 354.09 152.48 354.09 152.48 351.53 137.61 351.53 137.61 381.54 152.48 381.54 152.48 378.98"/>
  <g>
    <path d="M169.03,367.23h4.08c1.49,0,2.58,.07,3.29,.2,.71,.12,1.32,.34,1.83,.64,.75,.45,1.34,1.13,1.76,2.04,.42,.91,.64,1.96,.64,3.17,0,.98-.19,1.91-.58,2.77-.38,.87-.89,1.55-1.53,2.04-.52,.4-1.16,.68-1.91,.84-.76,.17-2.12,.25-4.11,.25h-3.48v-11.95Zm0-13.33h3.4c2.56,0,4.34,.43,5.34,1.27,1,.85,1.51,2.31,1.51,4.37,0,1.91-.51,3.28-1.55,4.1-1.03,.82-2.79,1.23-5.3,1.23h-3.4v-10.97Zm8.81,27.14c1.23-.33,2.28-.91,3.16-1.73,.86-.79,1.51-1.74,1.93-2.83,.42-1.09,.63-2.35,.63-3.75,0-1.92-.55-3.52-1.64-4.78-1.09-1.26-2.6-2.03-4.53-2.32,1.46-.36,2.61-1.09,3.44-2.21,.84-1.12,1.25-2.48,1.25-4.08,0-1.31-.26-2.52-.78-3.61-.52-1.09-1.27-2-2.27-2.75-.72-.53-1.58-.91-2.59-1.13-1.01-.22-2.66-.33-4.94-.33h-5.21v30.02h5.25c2.96,0,5.06-.17,6.29-.5"/>
    <path d="M199.13,361.48c.66-1.59,1.62-3.04,2.87-4.34,1.27-1.26,2.69-2.22,4.27-2.87,1.58-.65,3.25-.99,5.03-.99s3.48,.33,5.08,.99c1.6,.66,3.01,1.61,4.26,2.87,1.26,1.29,2.22,2.74,2.87,4.34,.66,1.61,.99,3.31,.99,5.11s-.33,3.5-1,5.12c-.66,1.62-1.62,3.07-2.86,4.34-1.27,1.26-2.7,2.22-4.29,2.87s-3.27,.99-5.05,.99-3.51-.33-5.07-.98c-1.57-.64-2.97-1.61-4.23-2.88-1.26-1.28-2.21-2.73-2.87-4.34-.65-1.6-.98-3.31-.98-5.12s.33-3.52,.98-5.11m.83,16.25c1.53,1.5,3.26,2.65,5.2,3.44,1.94,.78,3.98,1.18,6.15,1.18s4.21-.4,6.15-1.18c1.94-.79,3.68-1.94,5.23-3.44,1.52-1.49,2.68-3.19,3.49-5.09,.8-1.91,1.21-3.92,1.21-6.04s-.41-4.17-1.21-6.08c-.79-1.9-1.96-3.62-3.49-5.13-1.51-1.48-3.23-2.61-5.17-3.37-1.93-.78-4.01-1.16-6.22-1.16s-4.27,.38-6.2,1.15c-1.93,.76-3.64,1.89-5.15,3.39-1.53,1.51-2.7,3.23-3.5,5.13-.8,1.9-1.2,3.93-1.2,6.08s.4,4.13,1.2,6.02c.8,1.89,1.97,3.6,3.5,5.11"/>
  </g>
  <path d="M248.71,355.98l5.13,13.06h-10.46l5.33-13.06Zm-6.26,15.4h12.27l3.83,10.17h2.97l-12.64-31.21-13.18,31.21h2.77l3.97-10.17Z"/>
  <g>
    <path d="M274.76,353.91h2.75c2.47,0,4.23,.44,5.27,1.31,1.04,.88,1.56,2.34,1.56,4.41,0,1.96-.51,3.34-1.51,4.15-1,.81-2.78,1.22-5.32,1.22h-2.75v-11.09Zm0,13.33h1.64l10.54,14.32h3.32l-10.79-14.32c2.43,0,4.34-.67,5.73-2.01,1.39-1.34,2.08-3.18,2.08-5.51,0-2.75-.81-4.8-2.43-6.15-1.62-1.36-4.06-2.03-7.31-2.03h-5.52v30.02h2.73v-14.32Z"/>
    <path d="M304.06,353.78h2.96c3.44,0,5.85,.17,7.24,.53,1.38,.36,2.55,.96,3.51,1.83,1.27,1.12,2.23,2.55,2.88,4.3,.65,1.75,.97,3.77,.97,6.07s-.32,4.24-.97,5.99c-.64,1.75-1.59,3.21-2.85,4.39-.9,.84-2,1.43-3.3,1.78-1.3,.35-3.5,.52-6.6,.52h-3.84v-25.4Zm2.87,27.76c3.7,0,6.39-.21,8.06-.64,1.66-.42,3.15-1.13,4.45-2.13,1.64-1.25,2.89-2.93,3.77-5.03,.87-2.1,1.31-4.5,1.31-7.19s-.44-5.09-1.31-7.18c-.88-2.09-2.15-3.8-3.82-5.12-1.25-1-2.76-1.7-4.51-2.11-1.75-.41-4.71-.62-8.88-.62h-4.67v30.02h5.6Z"/>
    <path d="M343.9,379.9c-1.5,0-2.79-.41-3.86-1.22-1.07-.81-1.83-1.96-2.26-3.43l-2.34,1.25c.8,1.94,1.89,3.4,3.29,4.38,1.4,.97,3.09,1.47,5.06,1.47,2.7,0,4.84-.79,6.41-2.37,1.57-1.58,2.36-3.72,2.36-6.41,0-2-.43-3.62-1.29-4.87-.86-1.25-2.57-2.58-5.13-3.98-.33-.18-.8-.43-1.43-.76-3.47-1.82-5.21-3.78-5.21-5.89,0-1.47,.44-2.64,1.32-3.51,.87-.87,2.05-1.3,3.53-1.3,1.09,0,2.04,.23,2.84,.68,.79,.45,1.41,1.1,1.85,1.97l2.11-1.27c-.7-1.27-1.6-2.23-2.72-2.86-1.11-.64-2.42-.95-3.92-.95-2.3,0-4.16,.67-5.61,2.01-1.44,1.34-2.17,3.07-2.17,5.21,0,1.7,.5,3.16,1.5,4.39,1,1.22,3.01,2.63,6.03,4.22,2.37,1.26,3.91,2.36,4.63,3.33,.71,.95,1.07,2.16,1.07,3.61,0,1.98-.53,3.53-1.6,4.65-1.06,1.12-2.55,1.68-4.45,1.68"/>
  </g>
</svg>