<svg xmlns="http://www.w3.org/2000/svg" width="23" height="23" viewBox="0 0 23 23">
  <g id="Grupo_285" data-name="Grupo 285" transform="translate(-6588 -2680)">
    <rect id="Retângulo_202" data-name="Retângulo 202" width="19" height="2" transform="translate(6590 2680)"/>
    <rect id="Retângulo_203" data-name="Retângulo 203" width="19" height="2" transform="translate(6611 2682) rotate(90)"/>
    <rect id="Retângulo_204" data-name="Retângulo 204" width="19" height="2" transform="translate(6590 2682) rotate(90)"/>
    <rect id="Retângulo_206" data-name="Retângulo 206" width="5" height="2" transform="translate(6597 2694)"/>
    <rect id="Retângulo_207" data-name="Retângulo 207" width="5" height="2" transform="translate(6597 2687)"/>
    <rect id="Retângulo_208" data-name="Retângulo 208" width="5" height="2" transform="translate(6604 2689) rotate(90)"/>
    <rect id="Retângulo_209" data-name="Retângulo 209" width="5" height="2" transform="translate(6597 2689) rotate(90)"/>
    <rect id="Retângulo_210" data-name="Retângulo 210" width="19" height="2" transform="translate(6590 2701)"/>
    <rect id="Retângulo_211" data-name="Retângulo 211" width="2" height="2" transform="translate(6607 2684) rotate(90)"/>
  </g>
</svg>
