<?xml version="1.0" encoding="UTF-8"?>
<svg id="Camada_1" data-name="Camada 1" xmlns="http://www.w3.org/2000/svg" viewBox="0 0 400 400">
  <defs>
    <style>
      .cls-1 {
        fill: #fff;
      }

      .cls-2 {
        fill: #f49ac2;
      }
    </style>
  </defs>
  <circle class="cls-2" cx="200" cy="200" r="199.81"/>
  <path class="cls-1" d="M276.46,187.01c10,5.77,10,20.21,0,25.98l-54.35,31.38-54.35,31.38c-10,5.77-22.5-1.44-22.5-12.99v-125.52c0-11.55,12.5-18.76,22.5-12.99l54.35,31.38,54.35,31.38Z"/>
</svg>