<?xml version="1.0" encoding="UTF-8"?>
<svg id="Camada_1" data-name="Camada 1" xmlns="http://www.w3.org/2000/svg" viewBox="0 0 58 58">
  <defs>
    <style>
      .cls-1 {
        fill: #fff;
      }

      .cls-2 {
        fill: #f49ac2;
      }
    </style>
  </defs>
  <path class="cls-2" d="M29,.04C13.03,.04,.04,13.03,.04,29s12.99,28.96,28.96,28.96,28.96-12.99,28.96-28.96S44.97,.04,29,.04Z"/>
  <path class="cls-1" d="M40.9,32.02l-10.46-10.82s-.02-.01-.03-.02c0,0-.01-.02-.02-.03-.04-.04-.09-.07-.13-.1-.05-.04-.11-.09-.16-.13-.05-.04-.11-.06-.17-.09-.06-.03-.12-.07-.18-.09-.06-.02-.12-.04-.18-.06-.06-.02-.12-.04-.19-.05-.06-.01-.13-.02-.19-.02-.06,0-.13-.02-.19-.01-.06,0-.13,0-.19,.01-.06,0-.13,0-.19,.02s-.12,.03-.19,.05c-.06,.02-.12,.03-.18,.06-.06,.02-.12,.06-.18,.09-.06,.03-.11,.06-.17,.09-.06,.04-.11,.08-.16,.13-.04,.03-.09,.06-.13,.1,0,0-.01,.02-.02,.03,0,0-.02,.01-.03,.02l-10.46,10.82c-.77,.79-.75,2.06,.05,2.83,.39,.38,.89,.56,1.39,.56s1.05-.2,1.44-.61l9.02-9.34,9.03,9.34c.39,.41,.91,.61,1.44,.61s1-.19,1.39-.56c.79-.77,.82-2.03,.05-2.83Z"/>
</svg>